digraph G {
"0x7fff30001860"[label="K: 642 - H: 11"];
"0x7fff30001860" -> "0x7fff2c001be0"[color=blue];
"0x7fff30001860" -> "0x7fff90001e20"[color=green];
"0x7fff30001860" -> "0x5555557771b0"[color=grey];
"0x7fff2c001be0"[label="K: 260 - H: 10"];
"0x7fff2c001be0" -> "0x7fff08000ee0"[color=blue];
"0x7fff2c001be0" -> "0x7fffd0001420"[color=green];
"0x7fff2c001be0" -> "0x7fff30001860"[color=grey];
"0x7fff08000ee0"[label="K: 110 - H: 8"];
"0x7fff08000ee0" -> "0x7fff4c0018a0"[color=blue];
"0x7fff08000ee0" -> "0x7fff2c001720"[color=green];
"0x7fff08000ee0" -> "0x7fff2c001be0"[color=grey];
"0x7fff4c0018a0"[label="K: 80 - H: 7"];
"0x7fff4c0018a0" -> "0x7fff3c001ba0"[color=blue];
"0x7fff4c0018a0" -> "0x7fff4c001220"[color=green];
"0x7fff4c0018a0" -> "0x7fff08000ee0"[color=grey];
"0x7fff3c001ba0"[label="K: 32 - H: 6"];
"0x7fff3c001ba0" -> "0x7ffefc0018e0"[color=blue];
"0x7fff3c001ba0" -> "0x7fff04002060"[color=green];
"0x7fff3c001ba0" -> "0x7fff4c0018a0"[color=grey];
"0x7ffefc0018e0"[label="K: 18 - H: 4"];
"0x7ffefc0018e0" -> "0x7fff200021a0"[color=blue];
"0x7ffefc0018e0" -> "0x7fff4c001260"[color=green];
"0x7ffefc0018e0" -> "0x7fff3c001ba0"[color=grey];
"0x7fff200021a0"[label="K: 14 - H: 3"];
"0x7fff200021a0" -> "0x7ffef8001420"[color=blue];
"0x7fff200021a0" -> "0x7ffefc001120"[color=green];
"0x7fff200021a0" -> "0x7ffefc0018e0"[color=grey];
"0x7ffef8001420"[label="K: 8 - H: 2"];
"0x7ffef8001420" -> "0x7fff440022a0"[color=green];
"0x7ffef8001420" -> "0x7fff200021a0"[color=grey];
"0x7fff440022a0"[label="K: 9 - H: 1"];
"0x7fff440022a0" -> "0x7ffef8001420"[color=grey];
"0x7ffefc001120"[label="K: 17 - H: 1"];
"0x7ffefc001120" -> "0x7fff200021a0"[color=grey];
"0x7fff4c001260"[label="K: 23 - H: 3"];
"0x7fff4c001260" -> "0x7fff4c001d60"[color=blue];
"0x7fff4c001260" -> "0x7fffa4000f20"[color=green];
"0x7fff4c001260" -> "0x7ffefc0018e0"[color=grey];
"0x7fff4c001d60"[label="K: 21 - H: 1"];
"0x7fff4c001d60" -> "0x7fff4c001260"[color=grey];
"0x7fffa4000f20"[label="K: 26 - H: 2"];
"0x7fffa4000f20" -> "0x7fff4c0012a0"[color=green];
"0x7fffa4000f20" -> "0x7fff4c001260"[color=grey];
"0x7fff4c0012a0"[label="K: 29 - H: 1"];
"0x7fff4c0012a0" -> "0x7fffa4000f20"[color=grey];
"0x7fff04002060"[label="K: 63 - H: 5"];
"0x7fff04002060" -> "0x7fffbc001ba0"[color=blue];
"0x7fff04002060" -> "0x7fff4c0022e0"[color=green];
"0x7fff04002060" -> "0x7fff3c001ba0"[color=grey];
"0x7fffbc001ba0"[label="K: 46 - H: 4"];
"0x7fffbc001ba0" -> "0x7fff4c000d60"[color=blue];
"0x7fffbc001ba0" -> "0x7fff44000fa0"[color=green];
"0x7fffbc001ba0" -> "0x7fff04002060"[color=grey];
"0x7fff4c000d60"[label="K: 40 - H: 3"];
"0x7fff4c000d60" -> "0x7fff2c0019a0"[color=blue];
"0x7fff4c000d60" -> "0x7fff4c0028e0"[color=green];
"0x7fff4c000d60" -> "0x7fffbc001ba0"[color=grey];
"0x7fff2c0019a0"[label="K: 36 - H: 2"];
"0x7fff2c0019a0" -> "0x7fff080011e0"[color=blue];
"0x7fff2c0019a0" -> "0x7fff4c0017a0"[color=green];
"0x7fff2c0019a0" -> "0x7fff4c000d60"[color=grey];
"0x7fff080011e0"[label="K: 34 - H: 1"];
"0x7fff080011e0" -> "0x7fff2c0019a0"[color=grey];
"0x7fff4c0017a0"[label="K: 39 - H: 1"];
"0x7fff4c0017a0" -> "0x7fff2c0019a0"[color=grey];
"0x7fff4c0028e0"[label="K: 42 - H: 2"];
"0x7fff4c0028e0" -> "0x7fff440012e0"[color=green];
"0x7fff4c0028e0" -> "0x7fff4c000d60"[color=grey];
"0x7fff440012e0"[label="K: 43 - H: 1"];
"0x7fff440012e0" -> "0x7fff4c0028e0"[color=grey];
"0x7fff44000fa0"[label="K: 51 - H: 3"];
"0x7fff44000fa0" -> "0x7ffef80010e0"[color=blue];
"0x7fff44000fa0" -> "0x7fff2c0017e0"[color=green];
"0x7fff44000fa0" -> "0x7fffbc001ba0"[color=grey];
"0x7ffef80010e0"[label="K: 48 - H: 2"];
"0x7ffef80010e0" -> "0x7fffbc0016e0"[color=blue];
"0x7ffef80010e0" -> "0x7fff30001be0"[color=green];
"0x7ffef80010e0" -> "0x7fff44000fa0"[color=grey];
"0x7fffbc0016e0"[label="K: 47 - H: 1"];
"0x7fffbc0016e0" -> "0x7ffef80010e0"[color=grey];
"0x7fff30001be0"[label="K: 50 - H: 1"];
"0x7fff30001be0" -> "0x7ffef80010e0"[color=grey];
"0x7fff2c0017e0"[label="K: 54 - H: 2"];
"0x7fff2c0017e0" -> "0x7fff040018e0"[color=green];
"0x7fff2c0017e0" -> "0x7fff44000fa0"[color=grey];
"0x7fff040018e0"[label="K: 55 - H: 1"];
"0x7fff040018e0" -> "0x7fff2c0017e0"[color=grey];
"0x7fff4c0022e0"[label="K: 74 - H: 4"];
"0x7fff4c0022e0" -> "0x7fff1c0016a0"[color=blue];
"0x7fff4c0022e0" -> "0x7fff2c0017a0"[color=green];
"0x7fff4c0022e0" -> "0x7fff04002060"[color=grey];
"0x7fff1c0016a0"[label="K: 69 - H: 3"];
"0x7fff1c0016a0" -> "0x7ffefc000f20"[color=blue];
"0x7fff1c0016a0" -> "0x7fff4c001ee0"[color=green];
"0x7fff1c0016a0" -> "0x7fff4c0022e0"[color=grey];
"0x7ffefc000f20"[label="K: 67 - H: 2"];
"0x7ffefc000f20" -> "0x7fff4c001760"[color=blue];
"0x7ffefc000f20" -> "0x7fff1c0016a0"[color=grey];
"0x7fff4c001760"[label="K: 64 - H: 1"];
"0x7fff4c001760" -> "0x7ffefc000f20"[color=grey];
"0x7fff4c001ee0"[label="K: 72 - H: 1"];
"0x7fff4c001ee0" -> "0x7fff1c0016a0"[color=grey];
"0x7fff2c0017a0"[label="K: 76 - H: 2"];
"0x7fff2c0017a0" -> "0x7fff04001260"[color=green];
"0x7fff2c0017a0" -> "0x7fff4c0022e0"[color=grey];
"0x7fff04001260"[label="K: 78 - H: 1"];
"0x7fff04001260" -> "0x7fff2c0017a0"[color=grey];
"0x7fff4c001220"[label="K: 97 - H: 5"];
"0x7fff4c001220" -> "0x7fffbc0013a0"[color=blue];
"0x7fff4c001220" -> "0x7fffbc0015e0"[color=green];
"0x7fff4c001220" -> "0x7fff4c0018a0"[color=grey];
"0x7fffbc0013a0"[label="K: 92 - H: 4"];
"0x7fffbc0013a0" -> "0x7ffefc001660"[color=blue];
"0x7fffbc0013a0" -> "0x7fff20001720"[color=green];
"0x7fffbc0013a0" -> "0x7fff4c001220"[color=grey];
"0x7ffefc001660"[label="K: 86 - H: 3"];
"0x7ffefc001660" -> "0x7fffd0000f60"[color=blue];
"0x7ffefc001660" -> "0x7fff2c002b20"[color=green];
"0x7ffefc001660" -> "0x7fffbc0013a0"[color=grey];
"0x7fffd0000f60"[label="K: 81 - H: 1"];
"0x7fffd0000f60" -> "0x7ffefc001660"[color=grey];
"0x7fff2c002b20"[label="K: 89 - H: 2"];
"0x7fff2c002b20" -> "0x7fff4c001b60"[color=blue];
"0x7fff2c002b20" -> "0x7fff200017e0"[color=green];
"0x7fff2c002b20" -> "0x7ffefc001660"[color=grey];
"0x7fff4c001b60"[label="K: 87 - H: 1"];
"0x7fff4c001b60" -> "0x7fff2c002b20"[color=grey];
"0x7fff200017e0"[label="K: 90 - H: 1"];
"0x7fff200017e0" -> "0x7fff2c002b20"[color=grey];
"0x7fff20001720"[label="K: 93 - H: 2"];
"0x7fff20001720" -> "0x7ffef00012e0"[color=green];
"0x7fff20001720" -> "0x7fffbc0013a0"[color=grey];
"0x7ffef00012e0"[label="K: 96 - H: 1"];
"0x7ffef00012e0" -> "0x7fff20001720"[color=grey];
"0x7fffbc0015e0"[label="K: 103 - H: 4"];
"0x7fffbc0015e0" -> "0x7ffefc001c20"[color=blue];
"0x7fffbc0015e0" -> "0x7fff4c0014e0"[color=green];
"0x7fffbc0015e0" -> "0x7fff4c001220"[color=grey];
"0x7ffefc001c20"[label="K: 100 - H: 2"];
"0x7ffefc001c20" -> "0x7fff44001b20"[color=blue];
"0x7ffefc001c20" -> "0x7fff740022a0"[color=green];
"0x7ffefc001c20" -> "0x7fffbc0015e0"[color=grey];
"0x7fff44001b20"[label="K: 99 - H: 1"];
"0x7fff44001b20" -> "0x7ffefc001c20"[color=grey];
"0x7fff740022a0"[label="K: 102 - H: 1"];
"0x7fff740022a0" -> "0x7ffefc001c20"[color=grey];
"0x7fff4c0014e0"[label="K: 105 - H: 3"];
"0x7fff4c0014e0" -> "0x7fffac002d60"[color=blue];
"0x7fff4c0014e0" -> "0x7fff4c000f60"[color=green];
"0x7fff4c0014e0" -> "0x7fffbc0015e0"[color=grey];
"0x7fffac002d60"[label="K: 104 - H: 1"];
"0x7fffac002d60" -> "0x7fff4c0014e0"[color=grey];
"0x7fff4c000f60"[label="K: 106 - H: 2"];
"0x7fff4c000f60" -> "0x7fff30001ca0"[color=green];
"0x7fff4c000f60" -> "0x7fff4c0014e0"[color=grey];
"0x7fff30001ca0"[label="K: 108 - H: 1"];
"0x7fff30001ca0" -> "0x7fff4c000f60"[color=grey];
"0x7fff2c001720"[label="K: 165 - H: 7"];
"0x7fff2c001720" -> "0x7fff200024e0"[color=blue];
"0x7fff2c001720" -> "0x7ffef0001360"[color=green];
"0x7fff2c001720" -> "0x7fff08000ee0"[color=grey];
"0x7fff200024e0"[label="K: 135 - H: 5"];
"0x7fff200024e0" -> "0x7ffefc000be0"[color=blue];
"0x7fff200024e0" -> "0x7fff24000be0"[color=green];
"0x7fff200024e0" -> "0x7fff2c001720"[color=grey];
"0x7ffefc000be0"[label="K: 130 - H: 4"];
"0x7ffefc000be0" -> "0x7fff200014e0"[color=blue];
"0x7ffefc000be0" -> "0x7fff04001fa0"[color=green];
"0x7ffefc000be0" -> "0x7fff200024e0"[color=grey];
"0x7fff200014e0"[label="K: 117 - H: 3"];
"0x7fff200014e0" -> "0x7fff20001a20"[color=blue];
"0x7fff200014e0" -> "0x7fff20001ca0"[color=green];
"0x7fff200014e0" -> "0x7ffefc000be0"[color=grey];
"0x7fff20001a20"[label="K: 116 - H: 1"];
"0x7fff20001a20" -> "0x7fff200014e0"[color=grey];
"0x7fff20001ca0"[label="K: 120 - H: 2"];
"0x7fff20001ca0" -> "0x7fff2c001a20"[color=blue];
"0x7fff20001ca0" -> "0x7fff080016a0"[color=green];
"0x7fff20001ca0" -> "0x7fff200014e0"[color=grey];
"0x7fff2c001a20"[label="K: 119 - H: 1"];
"0x7fff2c001a20" -> "0x7fff20001ca0"[color=grey];
"0x7fff080016a0"[label="K: 124 - H: 1"];
"0x7fff080016a0" -> "0x7fff20001ca0"[color=grey];
"0x7fff04001fa0"[label="K: 132 - H: 2"];
"0x7fff04001fa0" -> "0x7ffefc001220"[color=green];
"0x7fff04001fa0" -> "0x7ffefc000be0"[color=grey];
"0x7ffefc001220"[label="K: 133 - H: 1"];
"0x7ffefc001220" -> "0x7fff04001fa0"[color=grey];
"0x7fff24000be0"[label="K: 143 - H: 4"];
"0x7fff24000be0" -> "0x7fff90000be0"[color=blue];
"0x7fff24000be0" -> "0x7fffa4001620"[color=green];
"0x7fff24000be0" -> "0x7fff200024e0"[color=grey];
"0x7fff90000be0"[label="K: 139 - H: 3"];
"0x7fff90000be0" -> "0x7fffbc0017e0"[color=blue];
"0x7fff90000be0" -> "0x7fffb8001ea0"[color=green];
"0x7fff90000be0" -> "0x7fff24000be0"[color=grey];
"0x7fffbc0017e0"[label="K: 138 - H: 2"];
"0x7fffbc0017e0" -> "0x7fff4c001ae0"[color=blue];
"0x7fffbc0017e0" -> "0x7fff90000be0"[color=grey];
"0x7fff4c001ae0"[label="K: 137 - H: 1"];
"0x7fff4c001ae0" -> "0x7fffbc0017e0"[color=grey];
"0x7fffb8001ea0"[label="K: 140 - H: 1"];
"0x7fffb8001ea0" -> "0x7fff90000be0"[color=grey];
"0x7fffa4001620"[label="K: 156 - H: 3"];
"0x7fffa4001620" -> "0x7fff2c0010a0"[color=blue];
"0x7fffa4001620" -> "0x7fff2c002420"[color=green];
"0x7fffa4001620" -> "0x7fff24000be0"[color=grey];
"0x7fff2c0010a0"[label="K: 146 - H: 2"];
"0x7fff2c0010a0" -> "0x7fff44001060"[color=green];
"0x7fff2c0010a0" -> "0x7fffa4001620"[color=grey];
"0x7fff44001060"[label="K: 153 - H: 1"];
"0x7fff44001060" -> "0x7fff2c0010a0"[color=grey];
"0x7fff2c002420"[label="K: 163 - H: 2"];
"0x7fff2c002420" -> "0x7fff44000de0"[color=blue];
"0x7fff2c002420" -> "0x7fffa4001620"[color=grey];
"0x7fff44000de0"[label="K: 158 - H: 1"];
"0x7fff44000de0" -> "0x7fff2c002420"[color=grey];
"0x7ffef0001360"[label="K: 222 - H: 6"];
"0x7ffef0001360" -> "0x7fff2c000f20"[color=blue];
"0x7ffef0001360" -> "0x7fff20001ea0"[color=green];
"0x7ffef0001360" -> "0x7fff2c001720"[color=grey];
"0x7fff2c000f20"[label="K: 186 - H: 5"];
"0x7fff2c000f20" -> "0x7fff900013e0"[color=blue];
"0x7fff2c000f20" -> "0x7fffbc001c20"[color=green];
"0x7fff2c000f20" -> "0x7ffef0001360"[color=grey];
"0x7fff900013e0"[label="K: 172 - H: 4"];
"0x7fff900013e0" -> "0x7fff04001ce0"[color=blue];
"0x7fff900013e0" -> "0x7fff44001de0"[color=green];
"0x7fff900013e0" -> "0x7fff2c000f20"[color=grey];
"0x7fff04001ce0"[label="K: 168 - H: 3"];
"0x7fff04001ce0" -> "0x7ffee4000e20"[color=blue];
"0x7fff04001ce0" -> "0x7fff08001660"[color=green];
"0x7fff04001ce0" -> "0x7fff900013e0"[color=grey];
"0x7ffee4000e20"[label="K: 166 - H: 1"];
"0x7ffee4000e20" -> "0x7fff04001ce0"[color=grey];
"0x7fff08001660"[label="K: 170 - H: 2"];
"0x7fff08001660" -> "0x7fff4c0015a0"[color=green];
"0x7fff08001660" -> "0x7fff04001ce0"[color=grey];
"0x7fff4c0015a0"[label="K: 171 - H: 1"];
"0x7fff4c0015a0" -> "0x7fff08001660"[color=grey];
"0x7fff44001de0"[label="K: 178 - H: 3"];
"0x7fff44001de0" -> "0x7fffbc001f20"[color=blue];
"0x7fff44001de0" -> "0x7fff54001360"[color=green];
"0x7fff44001de0" -> "0x7fff900013e0"[color=grey];
"0x7fffbc001f20"[label="K: 173 - H: 1"];
"0x7fffbc001f20" -> "0x7fff44001de0"[color=grey];
"0x7fff54001360"[label="K: 181 - H: 2"];
"0x7fff54001360" -> "0x7fff440014a0"[color=green];
"0x7fff54001360" -> "0x7fff44001de0"[color=grey];
"0x7fff440014a0"[label="K: 183 - H: 1"];
"0x7fff440014a0" -> "0x7fff54001360"[color=grey];
"0x7fffbc001c20"[label="K: 200 - H: 4"];
"0x7fffbc001c20" -> "0x7fff44000e20"[color=blue];
"0x7fffbc001c20" -> "0x7fff30000f20"[color=green];
"0x7fffbc001c20" -> "0x7fff2c000f20"[color=grey];
"0x7fff44000e20"[label="K: 191 - H: 2"];
"0x7fff44000e20" -> "0x7fff2c002aa0"[color=blue];
"0x7fff44000e20" -> "0x7fffbc001c20"[color=grey];
"0x7fff2c002aa0"[label="K: 187 - H: 1"];
"0x7fff2c002aa0" -> "0x7fff44000e20"[color=grey];
"0x7fff30000f20"[label="K: 210 - H: 3"];
"0x7fff30000f20" -> "0x7fff20001920"[color=blue];
"0x7fff30000f20" -> "0x7fff680024a0"[color=green];
"0x7fff30000f20" -> "0x7fffbc001c20"[color=grey];
"0x7fff20001920"[label="K: 207 - H: 2"];
"0x7fff20001920" -> "0x7fff2c001ca0"[color=blue];
"0x7fff20001920" -> "0x7fff30000f20"[color=grey];
"0x7fff2c001ca0"[label="K: 204 - H: 1"];
"0x7fff2c001ca0" -> "0x7fff20001920"[color=grey];
"0x7fff680024a0"[label="K: 212 - H: 2"];
"0x7fff680024a0" -> "0x7fff740013a0"[color=blue];
"0x7fff680024a0" -> "0x7fff90001420"[color=green];
"0x7fff680024a0" -> "0x7fff30000f20"[color=grey];
"0x7fff740013a0"[label="K: 211 - H: 1"];
"0x7fff740013a0" -> "0x7fff680024a0"[color=grey];
"0x7fff90001420"[label="K: 218 - H: 1"];
"0x7fff90001420" -> "0x7fff680024a0"[color=grey];
"0x7fff20001ea0"[label="K: 241 - H: 5"];
"0x7fff20001ea0" -> "0x7fffbc000c60"[color=blue];
"0x7fff20001ea0" -> "0x7fffc8001720"[color=green];
"0x7fff20001ea0" -> "0x7ffef0001360"[color=grey];
"0x7fffbc000c60"[label="K: 233 - H: 4"];
"0x7fffbc000c60" -> "0x7fffbc001960"[color=blue];
"0x7fffbc000c60" -> "0x7fff1c000d20"[color=green];
"0x7fffbc000c60" -> "0x7fff20001ea0"[color=grey];
"0x7fffbc001960"[label="K: 228 - H: 3"];
"0x7fffbc001960" -> "0x7fff04001060"[color=blue];
"0x7fffbc001960" -> "0x7ffef8001760"[color=green];
"0x7fffbc001960" -> "0x7fffbc000c60"[color=grey];
"0x7fff04001060"[label="K: 225 - H: 2"];
"0x7fff04001060" -> "0x7fff20001b20"[color=blue];
"0x7fff04001060" -> "0x7ffefc001da0"[color=green];
"0x7fff04001060" -> "0x7fffbc001960"[color=grey];
"0x7fff20001b20"[label="K: 224 - H: 1"];
"0x7fff20001b20" -> "0x7fff04001060"[color=grey];
"0x7ffefc001da0"[label="K: 226 - H: 1"];
"0x7ffefc001da0" -> "0x7fff04001060"[color=grey];
"0x7ffef8001760"[label="K: 231 - H: 2"];
"0x7ffef8001760" -> "0x7fff44001b60"[color=blue];
"0x7ffef8001760" -> "0x7fffbc001960"[color=grey];
"0x7fff44001b60"[label="K: 230 - H: 1"];
"0x7fff44001b60" -> "0x7ffef8001760"[color=grey];
"0x7fff1c000d20"[label="K: 237 - H: 2"];
"0x7fff1c000d20" -> "0x7fff20000c60"[color=blue];
"0x7fff1c000d20" -> "0x7fff2c0027a0"[color=green];
"0x7fff1c000d20" -> "0x7fffbc000c60"[color=grey];
"0x7fff20000c60"[label="K: 236 - H: 1"];
"0x7fff20000c60" -> "0x7fff1c000d20"[color=grey];
"0x7fff2c0027a0"[label="K: 239 - H: 1"];
"0x7fff2c0027a0" -> "0x7fff1c000d20"[color=grey];
"0x7fffc8001720"[label="K: 248 - H: 4"];
"0x7fffc8001720" -> "0x7ffefc002160"[color=blue];
"0x7fffc8001720" -> "0x7fffa4001f60"[color=green];
"0x7fffc8001720" -> "0x7fff20001ea0"[color=grey];
"0x7ffefc002160"[label="K: 245 - H: 3"];
"0x7ffefc002160" -> "0x7fffac001d60"[color=blue];
"0x7ffefc002160" -> "0x7fff4c001be0"[color=green];
"0x7ffefc002160" -> "0x7fffc8001720"[color=grey];
"0x7fffac001d60"[label="K: 243 - H: 2"];
"0x7fffac001d60" -> "0x7fffbc001660"[color=blue];
"0x7fffac001d60" -> "0x7ffefc002160"[color=grey];
"0x7fffbc001660"[label="K: 242 - H: 1"];
"0x7fffbc001660" -> "0x7fffac001d60"[color=grey];
"0x7fff4c001be0"[label="K: 247 - H: 1"];
"0x7fff4c001be0" -> "0x7ffefc002160"[color=grey];
"0x7fffa4001f60"[label="K: 251 - H: 2"];
"0x7fffa4001f60" -> "0x7fffbc002220"[color=green];
"0x7fffa4001f60" -> "0x7fffc8001720"[color=grey];
"0x7fffbc002220"[label="K: 258 - H: 1"];
"0x7fffbc002220" -> "0x7fffa4001f60"[color=grey];
"0x7fffd0001420"[label="K: 454 - H: 9"];
"0x7fffd0001420" -> "0x7ffef4000ea0"[color=blue];
"0x7fffd0001420" -> "0x7fff90000e60"[color=green];
"0x7fffd0001420" -> "0x7fff2c001be0"[color=grey];
"0x7ffef4000ea0"[label="K: 345 - H: 8"];
"0x7ffef4000ea0" -> "0x7fff9c001620"[color=blue];
"0x7ffef4000ea0" -> "0x7fff90000b20"[color=green];
"0x7ffef4000ea0" -> "0x7fffd0001420"[color=grey];
"0x7fff9c001620"[label="K: 301 - H: 6"];
"0x7fff9c001620" -> "0x7fffbc000b60"[color=blue];
"0x7fff9c001620" -> "0x7fff080013e0"[color=green];
"0x7fff9c001620" -> "0x7ffef4000ea0"[color=grey];
"0x7fffbc000b60"[label="K: 282 - H: 5"];
"0x7fffbc000b60" -> "0x7fff200010a0"[color=blue];
"0x7fffbc000b60" -> "0x7fff9c0014a0"[color=green];
"0x7fffbc000b60" -> "0x7fff9c001620"[color=grey];
"0x7fff200010a0"[label="K: 275 - H: 4"];
"0x7fff200010a0" -> "0x7ffefc001ba0"[color=blue];
"0x7fff200010a0" -> "0x7fff20000ea0"[color=green];
"0x7fff200010a0" -> "0x7fffbc000b60"[color=grey];
"0x7ffefc001ba0"[label="K: 267 - H: 3"];
"0x7ffefc001ba0" -> "0x7ffef8001820"[color=blue];
"0x7ffefc001ba0" -> "0x7fff4c002720"[color=green];
"0x7ffefc001ba0" -> "0x7fff200010a0"[color=grey];
"0x7ffef8001820"[label="K: 265 - H: 2"];
"0x7ffef8001820" -> "0x7fff78001ba0"[color=blue];
"0x7ffef8001820" -> "0x7fffbc000ee0"[color=green];
"0x7ffef8001820" -> "0x7ffefc001ba0"[color=grey];
"0x7fff78001ba0"[label="K: 262 - H: 1"];
"0x7fff78001ba0" -> "0x7ffef8001820"[color=grey];
"0x7fffbc000ee0"[label="K: 266 - H: 1"];
"0x7fffbc000ee0" -> "0x7ffef8001820"[color=grey];
"0x7fff4c002720"[label="K: 271 - H: 2"];
"0x7fff4c002720" -> "0x7fff4c000e60"[color=blue];
"0x7fff4c002720" -> "0x7fff90001620"[color=green];
"0x7fff4c002720" -> "0x7ffefc001ba0"[color=grey];
"0x7fff4c000e60"[label="K: 268 - H: 1"];
"0x7fff4c000e60" -> "0x7fff4c002720"[color=grey];
"0x7fff90001620"[label="K: 273 - H: 1"];
"0x7fff90001620" -> "0x7fff4c002720"[color=grey];
"0x7fff20000ea0"[label="K: 277 - H: 2"];
"0x7fff20000ea0" -> "0x7fffb8005fa0"[color=blue];
"0x7fff20000ea0" -> "0x7fffbc001be0"[color=green];
"0x7fff20000ea0" -> "0x7fff200010a0"[color=grey];
"0x7fffb8005fa0"[label="K: 276 - H: 1"];
"0x7fffb8005fa0" -> "0x7fff20000ea0"[color=grey];
"0x7fffbc001be0"[label="K: 281 - H: 1"];
"0x7fffbc001be0" -> "0x7fff20000ea0"[color=grey];
"0x7fff9c0014a0"[label="K: 293 - H: 4"];
"0x7fff9c0014a0" -> "0x7fffbc0018a0"[color=blue];
"0x7fff9c0014a0" -> "0x7fff3c001de0"[color=green];
"0x7fff9c0014a0" -> "0x7fffbc000b60"[color=grey];
"0x7fffbc0018a0"[label="K: 287 - H: 3"];
"0x7fffbc0018a0" -> "0x7ffef80018e0"[color=blue];
"0x7fffbc0018a0" -> "0x7fff040012a0"[color=green];
"0x7fffbc0018a0" -> "0x7fff9c0014a0"[color=grey];
"0x7ffef80018e0"[label="K: 286 - H: 1"];
"0x7ffef80018e0" -> "0x7fffbc0018a0"[color=grey];
"0x7fff040012a0"[label="K: 288 - H: 2"];
"0x7fff040012a0" -> "0x7fffb8005020"[color=green];
"0x7fff040012a0" -> "0x7fffbc0018a0"[color=grey];
"0x7fffb8005020"[label="K: 289 - H: 1"];
"0x7fffb8005020" -> "0x7fff040012a0"[color=grey];
"0x7fff3c001de0"[label="K: 298 - H: 2"];
"0x7fff3c001de0" -> "0x7ffef0000d20"[color=blue];
"0x7fff3c001de0" -> "0x7fff04001d60"[color=green];
"0x7fff3c001de0" -> "0x7fff9c0014a0"[color=grey];
"0x7ffef0000d20"[label="K: 294 - H: 1"];
"0x7ffef0000d20" -> "0x7fff3c001de0"[color=grey];
"0x7fff04001d60"[label="K: 299 - H: 1"];
"0x7fff04001d60" -> "0x7fff3c001de0"[color=grey];
"0x7fff080013e0"[label="K: 328 - H: 5"];
"0x7fff080013e0" -> "0x7fff9c001360"[color=blue];
"0x7fff080013e0" -> "0x7fff4c0010e0"[color=green];
"0x7fff080013e0" -> "0x7fff9c001620"[color=grey];
"0x7fff9c001360"[label="K: 313 - H: 4"];
"0x7fff9c001360" -> "0x7fff9c000f60"[color=blue];
"0x7fff9c001360" -> "0x7fff2c002060"[color=green];
"0x7fff9c001360" -> "0x7fff080013e0"[color=grey];
"0x7fff9c000f60"[label="K: 310 - H: 3"];
"0x7fff9c000f60" -> "0x7fff2c001d60"[color=blue];
"0x7fff9c000f60" -> "0x7fffa4000ea0"[color=green];
"0x7fff9c000f60" -> "0x7fff9c001360"[color=grey];
"0x7fff2c001d60"[label="K: 304 - H: 2"];
"0x7fff2c001d60" -> "0x7fff20000d60"[color=blue];
"0x7fff2c001d60" -> "0x7fff44001d20"[color=green];
"0x7fff2c001d60" -> "0x7fff9c000f60"[color=grey];
"0x7fff20000d60"[label="K: 302 - H: 1"];
"0x7fff20000d60" -> "0x7fff2c001d60"[color=grey];
"0x7fff44001d20"[label="K: 309 - H: 1"];
"0x7fff44001d20" -> "0x7fff2c001d60"[color=grey];
"0x7fffa4000ea0"[label="K: 312 - H: 1"];
"0x7fffa4000ea0" -> "0x7fff9c000f60"[color=grey];
"0x7fff2c002060"[label="K: 318 - H: 3"];
"0x7fff2c002060" -> "0x7fff20002360"[color=blue];
"0x7fff2c002060" -> "0x7fff44001960"[color=green];
"0x7fff2c002060" -> "0x7fff9c001360"[color=grey];
"0x7fff20002360"[label="K: 315 - H: 2"];
"0x7fff20002360" -> "0x7fff4c002160"[color=green];
"0x7fff20002360" -> "0x7fff2c002060"[color=grey];
"0x7fff4c002160"[label="K: 316 - H: 1"];
"0x7fff4c002160" -> "0x7fff20002360"[color=grey];
"0x7fff44001960"[label="K: 319 - H: 2"];
"0x7fff44001960" -> "0x7fffbc001ce0"[color=green];
"0x7fff44001960" -> "0x7fff2c002060"[color=grey];
"0x7fffbc001ce0"[label="K: 321 - H: 1"];
"0x7fffbc001ce0" -> "0x7fff44001960"[color=grey];
"0x7fff4c0010e0"[label="K: 338 - H: 3"];
"0x7fff4c0010e0" -> "0x7ffef4001020"[color=blue];
"0x7fff4c0010e0" -> "0x7fff080015e0"[color=green];
"0x7fff4c0010e0" -> "0x7fff080013e0"[color=grey];
"0x7ffef4001020"[label="K: 331 - H: 2"];
"0x7ffef4001020" -> "0x7fff30001e20"[color=green];
"0x7ffef4001020" -> "0x7fff4c0010e0"[color=grey];
"0x7fff30001e20"[label="K: 332 - H: 1"];
"0x7fff30001e20" -> "0x7ffef4001020"[color=grey];
"0x7fff080015e0"[label="K: 340 - H: 2"];
"0x7fff080015e0" -> "0x7ffefc0017a0"[color=blue];
"0x7fff080015e0" -> "0x7ffee4001060"[color=green];
"0x7fff080015e0" -> "0x7fff4c0010e0"[color=grey];
"0x7ffefc0017a0"[label="K: 339 - H: 1"];
"0x7ffefc0017a0" -> "0x7fff080015e0"[color=grey];
"0x7ffee4001060"[label="K: 342 - H: 1"];
"0x7ffee4001060" -> "0x7fff080015e0"[color=grey];
"0x7fff90000b20"[label="K: 403 - H: 7"];
"0x7fff90000b20" -> "0x7fff2c001da0"[color=blue];
"0x7fff90000b20" -> "0x7ffefc000da0"[color=green];
"0x7fff90000b20" -> "0x7ffef4000ea0"[color=grey];
"0x7fff2c001da0"[label="K: 381 - H: 6"];
"0x7fff2c001da0" -> "0x7fff4c001020"[color=blue];
"0x7fff2c001da0" -> "0x7fff20001220"[color=green];
"0x7fff2c001da0" -> "0x7fff90000b20"[color=grey];
"0x7fff4c001020"[label="K: 362 - H: 5"];
"0x7fff4c001020" -> "0x7fff44000fe0"[color=blue];
"0x7fff4c001020" -> "0x7fff44001760"[color=green];
"0x7fff4c001020" -> "0x7fff2c001da0"[color=grey];
"0x7fff44000fe0"[label="K: 354 - H: 3"];
"0x7fff44000fe0" -> "0x7fff1c000da0"[color=blue];
"0x7fff44000fe0" -> "0x7fff2c0016a0"[color=green];
"0x7fff44000fe0" -> "0x7fff4c001020"[color=grey];
"0x7fff1c000da0"[label="K: 351 - H: 2"];
"0x7fff1c000da0" -> "0x7fff2c0027e0"[color=green];
"0x7fff1c000da0" -> "0x7fff44000fe0"[color=grey];
"0x7fff2c0027e0"[label="K: 352 - H: 1"];
"0x7fff2c0027e0" -> "0x7fff1c000da0"[color=grey];
"0x7fff2c0016a0"[label="K: 360 - H: 2"];
"0x7fff2c0016a0" -> "0x7ffef8001120"[color=blue];
"0x7fff2c0016a0" -> "0x7fff4c002ae0"[color=green];
"0x7fff2c0016a0" -> "0x7fff44000fe0"[color=grey];
"0x7ffef8001120"[label="K: 358 - H: 1"];
"0x7ffef8001120" -> "0x7fff2c0016a0"[color=grey];
"0x7fff4c002ae0"[label="K: 361 - H: 1"];
"0x7fff4c002ae0" -> "0x7fff2c0016a0"[color=grey];
"0x7fff44001760"[label="K: 368 - H: 4"];
"0x7fff44001760" -> "0x7fff4c001c20"[color=blue];
"0x7fff44001760" -> "0x7fff04000ce0"[color=green];
"0x7fff44001760" -> "0x7fff4c001020"[color=grey];
"0x7fff4c001c20"[label="K: 366 - H: 3"];
"0x7fff4c001c20" -> "0x7fff20001fa0"[color=blue];
"0x7fff4c001c20" -> "0x7fff44002160"[color=green];
"0x7fff4c001c20" -> "0x7fff44001760"[color=grey];
"0x7fff20001fa0"[label="K: 364 - H: 2"];
"0x7fff20001fa0" -> "0x7fff2c001fe0"[color=blue];
"0x7fff20001fa0" -> "0x7fffbc0011e0"[color=green];
"0x7fff20001fa0" -> "0x7fff4c001c20"[color=grey];
"0x7fff2c001fe0"[label="K: 363 - H: 1"];
"0x7fff2c001fe0" -> "0x7fff20001fa0"[color=grey];
"0x7fffbc0011e0"[label="K: 365 - H: 1"];
"0x7fffbc0011e0" -> "0x7fff20001fa0"[color=grey];
"0x7fff44002160"[label="K: 367 - H: 1"];
"0x7fff44002160" -> "0x7fff4c001c20"[color=grey];
"0x7fff04000ce0"[label="K: 372 - H: 3"];
"0x7fff04000ce0" -> "0x7fff78000da0"[color=blue];
"0x7fff04000ce0" -> "0x7ffef0000f20"[color=green];
"0x7fff04000ce0" -> "0x7fff44001760"[color=grey];
"0x7fff78000da0"[label="K: 371 - H: 2"];
"0x7fff78000da0" -> "0x7fff2c000b20"[color=blue];
"0x7fff78000da0" -> "0x7fff04000ce0"[color=grey];
"0x7fff2c000b20"[label="K: 370 - H: 1"];
"0x7fff2c000b20" -> "0x7fff78000da0"[color=grey];
"0x7ffef0000f20"[label="K: 374 - H: 1"];
"0x7ffef0000f20" -> "0x7fff04000ce0"[color=grey];
"0x7fff20001220"[label="K: 388 - H: 5"];
"0x7fff20001220" -> "0x7fffd0002360"[color=blue];
"0x7fff20001220" -> "0x7fffac000fe0"[color=green];
"0x7fff20001220" -> "0x7fff2c001da0"[color=grey];
"0x7fffd0002360"[label="K: 385 - H: 3"];
"0x7fffd0002360" -> "0x7fff4c0022a0"[color=blue];
"0x7fffd0002360" -> "0x7fff4c001860"[color=green];
"0x7fffd0002360" -> "0x7fff20001220"[color=grey];
"0x7fff4c0022a0"[label="K: 383 - H: 2"];
"0x7fff4c0022a0" -> "0x7fff2c001f20"[color=green];
"0x7fff4c0022a0" -> "0x7fffd0002360"[color=grey];
"0x7fff2c001f20"[label="K: 384 - H: 1"];
"0x7fff2c001f20" -> "0x7fff4c0022a0"[color=grey];
"0x7fff4c001860"[label="K: 387 - H: 1"];
"0x7fff4c001860" -> "0x7fffd0002360"[color=grey];
"0x7fffac000fe0"[label="K: 392 - H: 4"];
"0x7fffac000fe0" -> "0x7fff4c0025e0"[color=blue];
"0x7fffac000fe0" -> "0x7fff4c002520"[color=green];
"0x7fffac000fe0" -> "0x7fff20001220"[color=grey];
"0x7fff4c0025e0"[label="K: 390 - H: 2"];
"0x7fff4c0025e0" -> "0x7fff4c000c20"[color=blue];
"0x7fff4c0025e0" -> "0x7fffbc001b60"[color=green];
"0x7fff4c0025e0" -> "0x7fffac000fe0"[color=grey];
"0x7fff4c000c20"[label="K: 389 - H: 1"];
"0x7fff4c000c20" -> "0x7fff4c0025e0"[color=grey];
"0x7fffbc001b60"[label="K: 391 - H: 1"];
"0x7fffbc001b60" -> "0x7fff4c0025e0"[color=grey];
"0x7fff4c002520"[label="K: 396 - H: 3"];
"0x7fff4c002520" -> "0x7fff30001da0"[color=blue];
"0x7fff4c002520" -> "0x7fff1c000c20"[color=green];
"0x7fff4c002520" -> "0x7fffac000fe0"[color=grey];
"0x7fff30001da0"[label="K: 394 - H: 2"];
"0x7fff30001da0" -> "0x7ffefc002120"[color=blue];
"0x7fff30001da0" -> "0x7fff4c002520"[color=grey];
"0x7ffefc002120"[label="K: 393 - H: 1"];
"0x7ffefc002120" -> "0x7fff30001da0"[color=grey];
"0x7fff1c000c20"[label="K: 402 - H: 1"];
"0x7fff1c000c20" -> "0x7fff4c002520"[color=grey];
"0x7ffefc000da0"[label="K: 431 - H: 6"];
"0x7ffefc000da0" -> "0x7ffefc001c60"[color=blue];
"0x7ffefc000da0" -> "0x7fff2c000fa0"[color=green];
"0x7ffefc000da0" -> "0x7fff90000b20"[color=grey];
"0x7ffefc001c60"[label="K: 417 - H: 5"];
"0x7ffefc001c60" -> "0x7ffee40012e0"[color=blue];
"0x7ffefc001c60" -> "0x7fff08000b20"[color=green];
"0x7ffefc001c60" -> "0x7ffefc000da0"[color=grey];
"0x7ffee40012e0"[label="K: 409 - H: 4"];
"0x7ffee40012e0" -> "0x7fffbc0010a0"[color=blue];
"0x7ffee40012e0" -> "0x7fff20001360"[color=green];
"0x7ffee40012e0" -> "0x7ffefc001c60"[color=grey];
"0x7fffbc0010a0"[label="K: 405 - H: 3"];
"0x7fffbc0010a0" -> "0x7fffcc001020"[color=blue];
"0x7fffbc0010a0" -> "0x7fffa4001660"[color=green];
"0x7fffbc0010a0" -> "0x7ffee40012e0"[color=grey];
"0x7fffcc001020"[label="K: 404 - H: 1"];
"0x7fffcc001020" -> "0x7fffbc0010a0"[color=grey];
"0x7fffa4001660"[label="K: 406 - H: 2"];
"0x7fffa4001660" -> "0x7fffac000e20"[color=green];
"0x7fffa4001660" -> "0x7fffbc0010a0"[color=grey];
"0x7fffac000e20"[label="K: 407 - H: 1"];
"0x7fffac000e20" -> "0x7fffa4001660"[color=grey];
"0x7fff20001360"[label="K: 412 - H: 2"];
"0x7fff20001360" -> "0x7fff300012e0"[color=blue];
"0x7fff20001360" -> "0x7ffef8000d60"[color=green];
"0x7fff20001360" -> "0x7ffee40012e0"[color=grey];
"0x7fff300012e0"[label="K: 411 - H: 1"];
"0x7fff300012e0" -> "0x7fff20001360"[color=grey];
"0x7ffef8000d60"[label="K: 415 - H: 1"];
"0x7ffef8000d60" -> "0x7fff20001360"[color=grey];
"0x7fff08000b20"[label="K: 423 - H: 4"];
"0x7fff08000b20" -> "0x7ffee4000da0"[color=blue];
"0x7fff08000b20" -> "0x7fff44000f60"[color=green];
"0x7fff08000b20" -> "0x7ffefc001c60"[color=grey];
"0x7ffee4000da0"[label="K: 421 - H: 2"];
"0x7ffee4000da0" -> "0x7fffa40015a0"[color=blue];
"0x7ffee4000da0" -> "0x7fffa4001fa0"[color=green];
"0x7ffee4000da0" -> "0x7fff08000b20"[color=grey];
"0x7fffa40015a0"[label="K: 418 - H: 1"];
"0x7fffa40015a0" -> "0x7ffee4000da0"[color=grey];
"0x7fffa4001fa0"[label="K: 422 - H: 1"];
"0x7fffa4001fa0" -> "0x7ffee4000da0"[color=grey];
"0x7fff44000f60"[label="K: 427 - H: 3"];
"0x7fff44000f60" -> "0x7ffefc000b20"[color=blue];
"0x7fff44000f60" -> "0x7fff4c001320"[color=green];
"0x7fff44000f60" -> "0x7fff08000b20"[color=grey];
"0x7ffefc000b20"[label="K: 425 - H: 2"];
"0x7ffefc000b20" -> "0x7fffb80018e0"[color=green];
"0x7ffefc000b20" -> "0x7fff44000f60"[color=grey];
"0x7fffb80018e0"[label="K: 426 - H: 1"];
"0x7fffb80018e0" -> "0x7ffefc000b20"[color=grey];
"0x7fff4c001320"[label="K: 429 - H: 1"];
"0x7fff4c001320" -> "0x7fff44000f60"[color=grey];
"0x7fff2c000fa0"[label="K: 443 - H: 4"];
"0x7fff2c000fa0" -> "0x7ffefc0023a0"[color=blue];
"0x7fff2c000fa0" -> "0x7fffac0012a0"[color=green];
"0x7fff2c000fa0" -> "0x7ffefc000da0"[color=grey];
"0x7ffefc0023a0"[label="K: 434 - H: 3"];
"0x7ffefc0023a0" -> "0x7ffefc001160"[color=blue];
"0x7ffefc0023a0" -> "0x7ffefc0019a0"[color=green];
"0x7ffefc0023a0" -> "0x7fff2c000fa0"[color=grey];
"0x7ffefc001160"[label="K: 433 - H: 1"];
"0x7ffefc001160" -> "0x7ffefc0023a0"[color=grey];
"0x7ffefc0019a0"[label="K: 439 - H: 2"];
"0x7ffefc0019a0" -> "0x7fff200023e0"[color=blue];
"0x7ffefc0019a0" -> "0x7fff44001420"[color=green];
"0x7ffefc0019a0" -> "0x7ffefc0023a0"[color=grey];
"0x7fff200023e0"[label="K: 437 - H: 1"];
"0x7fff200023e0" -> "0x7ffefc0019a0"[color=grey];
"0x7fff44001420"[label="K: 440 - H: 1"];
"0x7fff44001420" -> "0x7ffefc0019a0"[color=grey];
"0x7fffac0012a0"[label="K: 448 - H: 3"];
"0x7fffac0012a0" -> "0x7fff4c001060"[color=blue];
"0x7fffac0012a0" -> "0x7fff04001620"[color=green];
"0x7fffac0012a0" -> "0x7fff2c000fa0"[color=grey];
"0x7fff4c001060"[label="K: 445 - H: 2"];
"0x7fff4c001060" -> "0x7fff4c002a20"[color=green];
"0x7fff4c001060" -> "0x7fffac0012a0"[color=grey];
"0x7fff4c002a20"[label="K: 447 - H: 1"];
"0x7fff4c002a20" -> "0x7fff4c001060"[color=grey];
"0x7fff04001620"[label="K: 452 - H: 2"];
"0x7fff04001620" -> "0x7fff44000be0"[color=green];
"0x7fff04001620" -> "0x7fffac0012a0"[color=grey];
"0x7fff44000be0"[label="K: 453 - H: 1"];
"0x7fff44000be0" -> "0x7fff04001620"[color=grey];
"0x7fff90000e60"[label="K: 563 - H: 8"];
"0x7fff90000e60" -> "0x7fff4c001120"[color=blue];
"0x7fff90000e60" -> "0x7fff4c000d20"[color=green];
"0x7fff90000e60" -> "0x7fffd0001420"[color=grey];
"0x7fff4c001120"[label="K: 518 - H: 7"];
"0x7fff4c001120" -> "0x7ffefc001ee0"[color=blue];
"0x7fff4c001120" -> "0x7fff200019a0"[color=green];
"0x7fff4c001120" -> "0x7fff90000e60"[color=grey];
"0x7ffefc001ee0"[label="K: 493 - H: 6"];
"0x7ffefc001ee0" -> "0x7fff90002220"[color=blue];
"0x7ffefc001ee0" -> "0x7fffbc001a60"[color=green];
"0x7ffefc001ee0" -> "0x7fff4c001120"[color=grey];
"0x7fff90002220"[label="K: 465 - H: 5"];
"0x7fff90002220" -> "0x7fff2c0024e0"[color=blue];
"0x7fff90002220" -> "0x7fff3c0025a0"[color=green];
"0x7fff90002220" -> "0x7ffefc001ee0"[color=grey];
"0x7fff2c0024e0"[label="K: 461 - H: 3"];
"0x7fff2c0024e0" -> "0x7fff20000c20"[color=blue];
"0x7fff2c0024e0" -> "0x7fff3c001ae0"[color=green];
"0x7fff2c0024e0" -> "0x7fff90002220"[color=grey];
"0x7fff20000c20"[label="K: 457 - H: 2"];
"0x7fff20000c20" -> "0x7fff44001aa0"[color=blue];
"0x7fff20000c20" -> "0x7fff680010e0"[color=green];
"0x7fff20000c20" -> "0x7fff2c0024e0"[color=grey];
"0x7fff44001aa0"[label="K: 456 - H: 1"];
"0x7fff44001aa0" -> "0x7fff20000c20"[color=grey];
"0x7fff680010e0"[label="K: 458 - H: 1"];
"0x7fff680010e0" -> "0x7fff20000c20"[color=grey];
"0x7fff3c001ae0"[label="K: 462 - H: 2"];
"0x7fff3c001ae0" -> "0x7fffbc0019a0"[color=green];
"0x7fff3c001ae0" -> "0x7fff2c0024e0"[color=grey];
"0x7fffbc0019a0"[label="K: 463 - H: 1"];
"0x7fffbc0019a0" -> "0x7fff3c001ae0"[color=grey];
"0x7fff3c0025a0"[label="K: 483 - H: 4"];
"0x7fff3c0025a0" -> "0x7ffee4000e60"[color=blue];
"0x7fff3c0025a0" -> "0x7fff4c002960"[color=green];
"0x7fff3c0025a0" -> "0x7fff90002220"[color=grey];
"0x7ffee4000e60"[label="K: 475 - H: 3"];
"0x7ffee4000e60" -> "0x7fff4c0029e0"[color=blue];
"0x7ffee4000e60" -> "0x7ffef8001560"[color=green];
"0x7ffee4000e60" -> "0x7fff3c0025a0"[color=grey];
"0x7fff4c0029e0"[label="K: 469 - H: 2"];
"0x7fff4c0029e0" -> "0x7fffbc001de0"[color=blue];
"0x7fff4c0029e0" -> "0x7fff4c000b60"[color=green];
"0x7fff4c0029e0" -> "0x7ffee4000e60"[color=grey];
"0x7fffbc001de0"[label="K: 467 - H: 1"];
"0x7fffbc001de0" -> "0x7fff4c0029e0"[color=grey];
"0x7fff4c000b60"[label="K: 474 - H: 1"];
"0x7fff4c000b60" -> "0x7fff4c0029e0"[color=grey];
"0x7ffef8001560"[label="K: 476 - H: 2"];
"0x7ffef8001560" -> "0x7fff2c001560"[color=green];
"0x7ffef8001560" -> "0x7ffee4000e60"[color=grey];
"0x7fff2c001560"[label="K: 478 - H: 1"];
"0x7fff2c001560" -> "0x7ffef8001560"[color=grey];
"0x7fff4c002960"[label="K: 492 - H: 2"];
"0x7fff4c002960" -> "0x7fff2c001220"[color=blue];
"0x7fff4c002960" -> "0x7fff3c0025a0"[color=grey];
"0x7fff2c001220"[label="K: 485 - H: 1"];
"0x7fff2c001220" -> "0x7fff4c002960"[color=grey];
"0x7fffbc001a60"[label="K: 508 - H: 4"];
"0x7fffbc001a60" -> "0x7fff4c0016a0"[color=blue];
"0x7fffbc001a60" -> "0x7fff1c001460"[color=green];
"0x7fffbc001a60" -> "0x7ffefc001ee0"[color=grey];
"0x7fff4c0016a0"[label="K: 502 - H: 3"];
"0x7fff4c0016a0" -> "0x7fff54000da0"[color=blue];
"0x7fff4c0016a0" -> "0x7ffef8001a20"[color=green];
"0x7fff4c0016a0" -> "0x7fffbc001a60"[color=grey];
"0x7fff54000da0"[label="K: 498 - H: 2"];
"0x7fff54000da0" -> "0x7fff2c0024a0"[color=blue];
"0x7fff54000da0" -> "0x7fff44001a20"[color=green];
"0x7fff54000da0" -> "0x7fff4c0016a0"[color=grey];
"0x7fff2c0024a0"[label="K: 496 - H: 1"];
"0x7fff2c0024a0" -> "0x7fff54000da0"[color=grey];
"0x7fff44001a20"[label="K: 499 - H: 1"];
"0x7fff44001a20" -> "0x7fff54000da0"[color=grey];
"0x7ffef8001a20"[label="K: 505 - H: 2"];
"0x7ffef8001a20" -> "0x7fff040019a0"[color=blue];
"0x7ffef8001a20" -> "0x7fff4c0016a0"[color=grey];
"0x7fff040019a0"[label="K: 504 - H: 1"];
"0x7fff040019a0" -> "0x7ffef8001a20"[color=grey];
"0x7fff1c001460"[label="K: 513 - H: 3"];
"0x7fff1c001460" -> "0x7fffbc0018e0"[color=blue];
"0x7fff1c001460" -> "0x7fff4c002360"[color=green];
"0x7fff1c001460" -> "0x7fffbc001a60"[color=grey];
"0x7fffbc0018e0"[label="K: 510 - H: 2"];
"0x7fffbc0018e0" -> "0x7fff440019e0"[color=blue];
"0x7fffbc0018e0" -> "0x7ffefc002020"[color=green];
"0x7fffbc0018e0" -> "0x7fff1c001460"[color=grey];
"0x7fff440019e0"[label="K: 509 - H: 1"];
"0x7fff440019e0" -> "0x7fffbc0018e0"[color=grey];
"0x7ffefc002020"[label="K: 511 - H: 1"];
"0x7ffefc002020" -> "0x7fffbc0018e0"[color=grey];
"0x7fff4c002360"[label="K: 514 - H: 2"];
"0x7fff4c002360" -> "0x7fffbc001620"[color=green];
"0x7fff4c002360" -> "0x7fff1c001460"[color=grey];
"0x7fffbc001620"[label="K: 516 - H: 1"];
"0x7fffbc001620" -> "0x7fff4c002360"[color=grey];
"0x7fff200019a0"[label="K: 550 - H: 5"];
"0x7fff200019a0" -> "0x7fff200018a0"[color=blue];
"0x7fff200019a0" -> "0x7fff20001160"[color=green];
"0x7fff200019a0" -> "0x7fff4c001120"[color=grey];
"0x7fff200018a0"[label="K: 536 - H: 4"];
"0x7fff200018a0" -> "0x7fff04001c60"[color=blue];
"0x7fff200018a0" -> "0x7fff2c000fe0"[color=green];
"0x7fff200018a0" -> "0x7fff200019a0"[color=grey];
"0x7fff04001c60"[label="K: 521 - H: 3"];
"0x7fff04001c60" -> "0x7fff4c000ee0"[color=blue];
"0x7fff04001c60" -> "0x7fff4c001a20"[color=green];
"0x7fff04001c60" -> "0x7fff200018a0"[color=grey];
"0x7fff4c000ee0"[label="K: 519 - H: 1"];
"0x7fff4c000ee0" -> "0x7fff04001c60"[color=grey];
"0x7fff4c001a20"[label="K: 526 - H: 2"];
"0x7fff4c001a20" -> "0x7ffefc0012a0"[color=blue];
"0x7fff4c001a20" -> "0x7fff04001c60"[color=grey];
"0x7ffefc0012a0"[label="K: 523 - H: 1"];
"0x7ffefc0012a0" -> "0x7fff4c001a20"[color=grey];
"0x7fff2c000fe0"[label="K: 542 - H: 3"];
"0x7fff2c000fe0" -> "0x7fff4c002320"[color=blue];
"0x7fff2c000fe0" -> "0x7fffa4002260"[color=green];
"0x7fff2c000fe0" -> "0x7fff200018a0"[color=grey];
"0x7fff4c002320"[label="K: 538 - H: 2"];
"0x7fff4c002320" -> "0x7fff08000ea0"[color=blue];
"0x7fff4c002320" -> "0x7fff5c0027e0"[color=green];
"0x7fff4c002320" -> "0x7fff2c000fe0"[color=grey];
"0x7fff08000ea0"[label="K: 537 - H: 1"];
"0x7fff08000ea0" -> "0x7fff4c002320"[color=grey];
"0x7fff5c0027e0"[label="K: 540 - H: 1"];
"0x7fff5c0027e0" -> "0x7fff4c002320"[color=grey];
"0x7fffa4002260"[label="K: 545 - H: 1"];
"0x7fffa4002260" -> "0x7fff2c000fe0"[color=grey];
"0x7fff20001160"[label="K: 556 - H: 4"];
"0x7fff20001160" -> "0x7fff04001360"[color=blue];
"0x7fff20001160" -> "0x7fff040014e0"[color=green];
"0x7fff20001160" -> "0x7fff200019a0"[color=grey];
"0x7fff04001360"[label="K: 554 - H: 3"];
"0x7fff04001360" -> "0x7fff44000c60"[color=blue];
"0x7fff04001360" -> "0x7fff20002220"[color=green];
"0x7fff04001360" -> "0x7fff20001160"[color=grey];
"0x7fff44000c60"[label="K: 553 - H: 2"];
"0x7fff44000c60" -> "0x7fff24000c20"[color=blue];
"0x7fff44000c60" -> "0x7fff04001360"[color=grey];
"0x7fff24000c20"[label="K: 551 - H: 1"];
"0x7fff24000c20" -> "0x7fff44000c60"[color=grey];
"0x7fff20002220"[label="K: 555 - H: 1"];
"0x7fff20002220" -> "0x7fff04001360"[color=grey];
"0x7fff040014e0"[label="K: 558 - H: 2"];
"0x7fff040014e0" -> "0x7fffbc001fe0"[color=blue];
"0x7fff040014e0" -> "0x7fff740019e0"[color=green];
"0x7fff040014e0" -> "0x7fff20001160"[color=grey];
"0x7fffbc001fe0"[label="K: 557 - H: 1"];
"0x7fffbc001fe0" -> "0x7fff040014e0"[color=grey];
"0x7fff740019e0"[label="K: 559 - H: 1"];
"0x7fff740019e0" -> "0x7fff040014e0"[color=grey];
"0x7fff4c000d20"[label="K: 595 - H: 6"];
"0x7fff4c000d20" -> "0x7fff20001b60"[color=blue];
"0x7fff4c000d20" -> "0x7fff4c001fa0"[color=green];
"0x7fff4c000d20" -> "0x7fff90000e60"[color=grey];
"0x7fff20001b60"[label="K: 582 - H: 5"];
"0x7fff20001b60" -> "0x7fff2c0026a0"[color=blue];
"0x7fff20001b60" -> "0x7fff20001ba0"[color=green];
"0x7fff20001b60" -> "0x7fff4c000d20"[color=grey];
"0x7fff2c0026a0"[label="K: 572 - H: 4"];
"0x7fff2c0026a0" -> "0x7fff4c001ea0"[color=blue];
"0x7fff2c0026a0" -> "0x7fff44001720"[color=green];
"0x7fff2c0026a0" -> "0x7fff20001b60"[color=grey];
"0x7fff4c001ea0"[label="K: 568 - H: 3"];
"0x7fff4c001ea0" -> "0x7fffbc000e20"[color=blue];
"0x7fff4c001ea0" -> "0x7fff44002220"[color=green];
"0x7fff4c001ea0" -> "0x7fff2c0026a0"[color=grey];
"0x7fffbc000e20"[label="K: 564 - H: 2"];
"0x7fffbc000e20" -> "0x7fff44001820"[color=green];
"0x7fffbc000e20" -> "0x7fff4c001ea0"[color=grey];
"0x7fff44001820"[label="K: 565 - H: 1"];
"0x7fff44001820" -> "0x7fffbc000e20"[color=grey];
"0x7fff44002220"[label="K: 570 - H: 1"];
"0x7fff44002220" -> "0x7fff4c001ea0"[color=grey];
"0x7fff44001720"[label="K: 576 - H: 2"];
"0x7fff44001720" -> "0x7ffef0000da0"[color=blue];
"0x7fff44001720" -> "0x7fffac000fa0"[color=green];
"0x7fff44001720" -> "0x7fff2c0026a0"[color=grey];
"0x7ffef0000da0"[label="K: 574 - H: 1"];
"0x7ffef0000da0" -> "0x7fff44001720"[color=grey];
"0x7fffac000fa0"[label="K: 577 - H: 1"];
"0x7fffac000fa0" -> "0x7fff44001720"[color=grey];
"0x7fff20001ba0"[label="K: 587 - H: 3"];
"0x7fff20001ba0" -> "0x7fff20000fe0"[color=blue];
"0x7fff20001ba0" -> "0x7fff20001660"[color=green];
"0x7fff20001ba0" -> "0x7fff20001b60"[color=grey];
"0x7fff20000fe0"[label="K: 584 - H: 2"];
"0x7fff20000fe0" -> "0x7fffbc000d20"[color=blue];
"0x7fff20000fe0" -> "0x7fff20001ba0"[color=grey];
"0x7fffbc000d20"[label="K: 583 - H: 1"];
"0x7fffbc000d20" -> "0x7fff20000fe0"[color=grey];
"0x7fff20001660"[label="K: 591 - H: 2"];
"0x7fff20001660" -> "0x7fffbc002460"[color=blue];
"0x7fff20001660" -> "0x7fff04000ea0"[color=green];
"0x7fff20001660" -> "0x7fff20001ba0"[color=grey];
"0x7fffbc002460"[label="K: 590 - H: 1"];
"0x7fffbc002460" -> "0x7fff20001660"[color=grey];
"0x7fff04000ea0"[label="K: 592 - H: 1"];
"0x7fff04000ea0" -> "0x7fff20001660"[color=grey];
"0x7fff4c001fa0"[label="K: 627 - H: 5"];
"0x7fff4c001fa0" -> "0x7fff440020a0"[color=blue];
"0x7fff4c001fa0" -> "0x7fff2c001020"[color=green];
"0x7fff4c001fa0" -> "0x7fff4c000d20"[color=grey];
"0x7fff440020a0"[label="K: 602 - H: 4"];
"0x7fff440020a0" -> "0x7ffef00011e0"[color=blue];
"0x7fff440020a0" -> "0x7fff4c001720"[color=green];
"0x7fff440020a0" -> "0x7fff4c001fa0"[color=grey];
"0x7ffef00011e0"[label="K: 600 - H: 2"];
"0x7ffef00011e0" -> "0x7fff2c002820"[color=blue];
"0x7ffef00011e0" -> "0x7fff2c000b60"[color=green];
"0x7ffef00011e0" -> "0x7fff440020a0"[color=grey];
"0x7fff2c002820"[label="K: 596 - H: 1"];
"0x7fff2c002820" -> "0x7ffef00011e0"[color=grey];
"0x7fff2c000b60"[label="K: 601 - H: 1"];
"0x7fff2c000b60" -> "0x7ffef00011e0"[color=grey];
"0x7fff4c001720"[label="K: 612 - H: 3"];
"0x7fff4c001720" -> "0x7fff080012e0"[color=blue];
"0x7fff4c001720" -> "0x7fff4c001fe0"[color=green];
"0x7fff4c001720" -> "0x7fff440020a0"[color=grey];
"0x7fff080012e0"[label="K: 607 - H: 2"];
"0x7fff080012e0" -> "0x7fff1c000e20"[color=green];
"0x7fff080012e0" -> "0x7fff4c001720"[color=grey];
"0x7fff1c000e20"[label="K: 611 - H: 1"];
"0x7fff1c000e20" -> "0x7fff080012e0"[color=grey];
"0x7fff4c001fe0"[label="K: 615 - H: 2"];
"0x7fff4c001fe0" -> "0x7fff78001be0"[color=blue];
"0x7fff4c001fe0" -> "0x7fff2c0023e0"[color=green];
"0x7fff4c001fe0" -> "0x7fff4c001720"[color=grey];
"0x7fff78001be0"[label="K: 614 - H: 1"];
"0x7fff78001be0" -> "0x7fff4c001fe0"[color=grey];
"0x7fff2c0023e0"[label="K: 616 - H: 1"];
"0x7fff2c0023e0" -> "0x7fff4c001fe0"[color=grey];
"0x7fff2c001020"[label="K: 636 - H: 3"];
"0x7fff2c001020" -> "0x7fffac002520"[color=blue];
"0x7fff2c001020" -> "0x7fffbc001fa0"[color=green];
"0x7fff2c001020" -> "0x7fff4c001fa0"[color=grey];
"0x7fffac002520"[label="K: 632 - H: 2"];
"0x7fffac002520" -> "0x7fff4c002760"[color=blue];
"0x7fffac002520" -> "0x7fff44001ee0"[color=green];
"0x7fffac002520" -> "0x7fff2c001020"[color=grey];
"0x7fff4c002760"[label="K: 631 - H: 1"];
"0x7fff4c002760" -> "0x7fffac002520"[color=grey];
"0x7fff44001ee0"[label="K: 635 - H: 1"];
"0x7fff44001ee0" -> "0x7fffac002520"[color=grey];
"0x7fffbc001fa0"[label="K: 641 - H: 2"];
"0x7fffbc001fa0" -> "0x7ffefc002360"[color=blue];
"0x7fffbc001fa0" -> "0x7fff2c001020"[color=grey];
"0x7ffefc002360"[label="K: 637 - H: 1"];
"0x7ffefc002360" -> "0x7fffbc001fa0"[color=grey];
"0x7fff90001e20"[label="K: 840 - H: 9"];
"0x7fff90001e20" -> "0x7fff44000d60"[color=blue];
"0x7fff90001e20" -> "0x7ffefc0014a0"[color=green];
"0x7fff90001e20" -> "0x7fff30001860"[color=grey];
"0x7fff44000d60"[label="K: 759 - H: 8"];
"0x7fff44000d60" -> "0x7fff040019e0"[color=blue];
"0x7fff44000d60" -> "0x7fff4c0024a0"[color=green];
"0x7fff44000d60" -> "0x7fff90001e20"[color=grey];
"0x7fff040019e0"[label="K: 707 - H: 7"];
"0x7fff040019e0" -> "0x7ffef40016a0"[color=blue];
"0x7fff040019e0" -> "0x7fff30000ca0"[color=green];
"0x7fff040019e0" -> "0x7fff44000d60"[color=grey];
"0x7ffef40016a0"[label="K: 687 - H: 6"];
"0x7ffef40016a0" -> "0x7fffd0000d60"[color=blue];
"0x7ffef40016a0" -> "0x7fff20001ee0"[color=green];
"0x7ffef40016a0" -> "0x7fff040019e0"[color=grey];
"0x7fffd0000d60"[label="K: 656 - H: 5"];
"0x7fffd0000d60" -> "0x7fff200019e0"[color=blue];
"0x7fffd0000d60" -> "0x7fffac001ba0"[color=green];
"0x7fffd0000d60" -> "0x7ffef40016a0"[color=grey];
"0x7fff200019e0"[label="K: 647 - H: 3"];
"0x7fff200019e0" -> "0x7fff4c0018e0"[color=blue];
"0x7fff200019e0" -> "0x7fff44002020"[color=green];
"0x7fff200019e0" -> "0x7fffd0000d60"[color=grey];
"0x7fff4c0018e0"[label="K: 646 - H: 2"];
"0x7fff4c0018e0" -> "0x7fff44000c20"[color=blue];
"0x7fff4c0018e0" -> "0x7fff200019e0"[color=grey];
"0x7fff44000c20"[label="K: 645 - H: 1"];
"0x7fff44000c20" -> "0x7fff4c0018e0"[color=grey];
"0x7fff44002020"[label="K: 650 - H: 2"];
"0x7fff44002020" -> "0x7fff3c001b20"[color=blue];
"0x7fff44002020" -> "0x7fffbc0020a0"[color=green];
"0x7fff44002020" -> "0x7fff200019e0"[color=grey];
"0x7fff3c001b20"[label="K: 648 - H: 1"];
"0x7fff3c001b20" -> "0x7fff44002020"[color=grey];
"0x7fffbc0020a0"[label="K: 654 - H: 1"];
"0x7fffbc0020a0" -> "0x7fff44002020"[color=grey];
"0x7fffac001ba0"[label="K: 678 - H: 4"];
"0x7fffac001ba0" -> "0x7fffa4001920"[color=blue];
"0x7fffac001ba0" -> "0x7fff200016a0"[color=green];
"0x7fffac001ba0" -> "0x7fffd0000d60"[color=grey];
"0x7fffa4001920"[label="K: 667 - H: 3"];
"0x7fffa4001920" -> "0x7ffefc0020e0"[color=blue];
"0x7fffa4001920" -> "0x7fff4c0014a0"[color=green];
"0x7fffa4001920" -> "0x7fffac001ba0"[color=grey];
"0x7ffefc0020e0"[label="K: 661 - H: 2"];
"0x7ffefc0020e0" -> "0x7fff2c0011e0"[color=blue];
"0x7ffefc0020e0" -> "0x7fff2c002a60"[color=green];
"0x7ffefc0020e0" -> "0x7fffa4001920"[color=grey];
"0x7fff2c0011e0"[label="K: 657 - H: 1"];
"0x7fff2c0011e0" -> "0x7ffefc0020e0"[color=grey];
"0x7fff2c002a60"[label="K: 665 - H: 1"];
"0x7fff2c002a60" -> "0x7ffefc0020e0"[color=grey];
"0x7fff4c0014a0"[label="K: 670 - H: 2"];
"0x7fff4c0014a0" -> "0x7fff2c000e20"[color=green];
"0x7fff4c0014a0" -> "0x7fffa4001920"[color=grey];
"0x7fff2c000e20"[label="K: 672 - H: 1"];
"0x7fff2c000e20" -> "0x7fff4c0014a0"[color=grey];
"0x7fff200016a0"[label="K: 683 - H: 3"];
"0x7fff200016a0" -> "0x7fff2c002360"[color=blue];
"0x7fff200016a0" -> "0x7fff20000ee0"[color=green];
"0x7fff200016a0" -> "0x7fffac001ba0"[color=grey];
"0x7fff2c002360"[label="K: 680 - H: 2"];
"0x7fff2c002360" -> "0x7fff200012e0"[color=green];
"0x7fff2c002360" -> "0x7fff200016a0"[color=grey];
"0x7fff200012e0"[label="K: 681 - H: 1"];
"0x7fff200012e0" -> "0x7fff2c002360"[color=grey];
"0x7fff20000ee0"[label="K: 685 - H: 1"];
"0x7fff20000ee0" -> "0x7fff200016a0"[color=grey];
"0x7fff20001ee0"[label="K: 702 - H: 4"];
"0x7fff20001ee0" -> "0x7ffef4001620"[color=blue];
"0x7fff20001ee0" -> "0x7fff44000f20"[color=green];
"0x7fff20001ee0" -> "0x7ffef40016a0"[color=grey];
"0x7ffef4001620"[label="K: 696 - H: 3"];
"0x7ffef4001620" -> "0x7fff4c002a60"[color=blue];
"0x7ffef4001620" -> "0x7ffefc000ca0"[color=green];
"0x7ffef4001620" -> "0x7fff20001ee0"[color=grey];
"0x7fff4c002a60"[label="K: 689 - H: 2"];
"0x7fff4c002a60" -> "0x7fff4c001f60"[color=green];
"0x7fff4c002a60" -> "0x7ffef4001620"[color=grey];
"0x7fff4c001f60"[label="K: 691 - H: 1"];
"0x7fff4c001f60" -> "0x7fff4c002a60"[color=grey];
"0x7ffefc000ca0"[label="K: 700 - H: 2"];
"0x7ffefc000ca0" -> "0x7fff44002460"[color=blue];
"0x7ffefc000ca0" -> "0x7fff20000e20"[color=green];
"0x7ffefc000ca0" -> "0x7ffef4001620"[color=grey];
"0x7fff44002460"[label="K: 698 - H: 1"];
"0x7fff44002460" -> "0x7ffefc000ca0"[color=grey];
"0x7fff20000e20"[label="K: 701 - H: 1"];
"0x7fff20000e20" -> "0x7ffefc000ca0"[color=grey];
"0x7fff44000f20"[label="K: 704 - H: 2"];
"0x7fff44000f20" -> "0x7fff20002120"[color=blue];
"0x7fff44000f20" -> "0x7fff2c001de0"[color=green];
"0x7fff44000f20" -> "0x7fff20001ee0"[color=grey];
"0x7fff20002120"[label="K: 703 - H: 1"];
"0x7fff20002120" -> "0x7fff44000f20"[color=grey];
"0x7fff2c001de0"[label="K: 705 - H: 1"];
"0x7fff2c001de0" -> "0x7fff44000f20"[color=grey];
"0x7fff30000ca0"[label="K: 726 - H: 6"];
"0x7fff30000ca0" -> "0x7fff4c000ea0"[color=blue];
"0x7fff30000ca0" -> "0x7fffbc001360"[color=green];
"0x7fff30000ca0" -> "0x7fff040019e0"[color=grey];
"0x7fff4c000ea0"[label="K: 718 - H: 4"];
"0x7fff4c000ea0" -> "0x7fff2c001b60"[color=blue];
"0x7fff4c000ea0" -> "0x7fff740025e0"[color=green];
"0x7fff4c000ea0" -> "0x7fff30000ca0"[color=grey];
"0x7fff2c001b60"[label="K: 712 - H: 3"];
"0x7fff2c001b60" -> "0x7fff4c001d20"[color=blue];
"0x7fff2c001b60" -> "0x7fff20001420"[color=green];
"0x7fff2c001b60" -> "0x7fff4c000ea0"[color=grey];
"0x7fff4c001d20"[label="K: 709 - H: 2"];
"0x7fff4c001d20" -> "0x7fff900021a0"[color=blue];
"0x7fff4c001d20" -> "0x7fff200020e0"[color=green];
"0x7fff4c001d20" -> "0x7fff2c001b60"[color=grey];
"0x7fff900021a0"[label="K: 708 - H: 1"];
"0x7fff900021a0" -> "0x7fff4c001d20"[color=grey];
"0x7fff200020e0"[label="K: 710 - H: 1"];
"0x7fff200020e0" -> "0x7fff4c001d20"[color=grey];
"0x7fff20001420"[label="K: 716 - H: 2"];
"0x7fff20001420" -> "0x7fff440021a0"[color=blue];
"0x7fff20001420" -> "0x7fff90001a60"[color=green];
"0x7fff20001420" -> "0x7fff2c001b60"[color=grey];
"0x7fff440021a0"[label="K: 715 - H: 1"];
"0x7fff440021a0" -> "0x7fff20001420"[color=grey];
"0x7fff90001a60"[label="K: 717 - H: 1"];
"0x7fff90001a60" -> "0x7fff20001420"[color=grey];
"0x7fff740025e0"[label="K: 721 - H: 3"];
"0x7fff740025e0" -> "0x7ffefc000e20"[color=blue];
"0x7fff740025e0" -> "0x7fff5c0011a0"[color=green];
"0x7fff740025e0" -> "0x7fff4c000ea0"[color=grey];
"0x7ffefc000e20"[label="K: 719 - H: 2"];
"0x7ffefc000e20" -> "0x7fff240012e0"[color=green];
"0x7ffefc000e20" -> "0x7fff740025e0"[color=grey];
"0x7fff240012e0"[label="K: 720 - H: 1"];
"0x7fff240012e0" -> "0x7ffefc000e20"[color=grey];
"0x7fff5c0011a0"[label="K: 723 - H: 1"];
"0x7fff5c0011a0" -> "0x7fff740025e0"[color=grey];
"0x7fffbc001360"[label="K: 743 - H: 5"];
"0x7fffbc001360" -> "0x7fff90001160"[color=blue];
"0x7fffbc001360" -> "0x7fff2c0016e0"[color=green];
"0x7fffbc001360" -> "0x7fff30000ca0"[color=grey];
"0x7fff90001160"[label="K: 732 - H: 4"];
"0x7fff90001160" -> "0x7ffefc0019e0"[color=blue];
"0x7fff90001160" -> "0x7fff20000d20"[color=green];
"0x7fff90001160" -> "0x7fffbc001360"[color=grey];
"0x7ffefc0019e0"[label="K: 729 - H: 2"];
"0x7ffefc0019e0" -> "0x7ffef8001460"[color=blue];
"0x7ffefc0019e0" -> "0x7fffbc001d20"[color=green];
"0x7ffefc0019e0" -> "0x7fff90001160"[color=grey];
"0x7ffef8001460"[label="K: 727 - H: 1"];
"0x7ffef8001460" -> "0x7ffefc0019e0"[color=grey];
"0x7fffbc001d20"[label="K: 730 - H: 1"];
"0x7fffbc001d20" -> "0x7ffefc0019e0"[color=grey];
"0x7fff20000d20"[label="K: 737 - H: 3"];
"0x7fff20000d20" -> "0x7fff080015a0"[color=blue];
"0x7fff20000d20" -> "0x7fff3c0014a0"[color=green];
"0x7fff20000d20" -> "0x7fff90001160"[color=grey];
"0x7fff080015a0"[label="K: 733 - H: 1"];
"0x7fff080015a0" -> "0x7fff20000d20"[color=grey];
"0x7fff3c0014a0"[label="K: 742 - H: 2"];
"0x7fff3c0014a0" -> "0x7fff2c001aa0"[color=blue];
"0x7fff3c0014a0" -> "0x7fff20000d20"[color=grey];
"0x7fff2c001aa0"[label="K: 741 - H: 1"];
"0x7fff2c001aa0" -> "0x7fff3c0014a0"[color=grey];
"0x7fff2c0016e0"[label="K: 756 - H: 4"];
"0x7fff2c0016e0" -> "0x7ffefc000fa0"[color=blue];
"0x7fff2c0016e0" -> "0x7fffac0010e0"[color=green];
"0x7fff2c0016e0" -> "0x7fffbc001360"[color=grey];
"0x7ffefc000fa0"[label="K: 750 - H: 3"];
"0x7ffefc000fa0" -> "0x7fff440011e0"[color=blue];
"0x7ffefc000fa0" -> "0x7fffbc001560"[color=green];
"0x7ffefc000fa0" -> "0x7fff2c0016e0"[color=grey];
"0x7fff440011e0"[label="K: 748 - H: 2"];
"0x7fff440011e0" -> "0x7fff44001ce0"[color=blue];
"0x7fff440011e0" -> "0x7fff2c0014a0"[color=green];
"0x7fff440011e0" -> "0x7ffefc000fa0"[color=grey];
"0x7fff44001ce0"[label="K: 745 - H: 1"];
"0x7fff44001ce0" -> "0x7fff440011e0"[color=grey];
"0x7fff2c0014a0"[label="K: 749 - H: 1"];
"0x7fff2c0014a0" -> "0x7fff440011e0"[color=grey];
"0x7fffbc001560"[label="K: 752 - H: 2"];
"0x7fffbc001560" -> "0x7fff900016a0"[color=blue];
"0x7fffbc001560" -> "0x7ffefc000fa0"[color=grey];
"0x7fff900016a0"[label="K: 751 - H: 1"];
"0x7fff900016a0" -> "0x7fffbc001560"[color=grey];
"0x7fffac0010e0"[label="K: 758 - H: 2"];
"0x7fffac0010e0" -> "0x7fff44001a60"[color=blue];
"0x7fffac0010e0" -> "0x7fff2c0016e0"[color=grey];
"0x7fff44001a60"[label="K: 757 - H: 1"];
"0x7fff44001a60" -> "0x7fffac0010e0"[color=grey];
"0x7fff4c0024a0"[label="K: 799 - H: 6"];
"0x7fff4c0024a0" -> "0x7ffefc001d60"[color=blue];
"0x7fff4c0024a0" -> "0x7fff90000da0"[color=green];
"0x7fff4c0024a0" -> "0x7fff44000d60"[color=grey];
"0x7ffefc001d60"[label="K: 781 - H: 5"];
"0x7ffefc001d60" -> "0x7fff2c001320"[color=blue];
"0x7ffefc001d60" -> "0x7ffefc001de0"[color=green];
"0x7ffefc001d60" -> "0x7fff4c0024a0"[color=grey];
"0x7fff2c001320"[label="K: 769 - H: 4"];
"0x7fff2c001320" -> "0x7fff2c000c20"[color=blue];
"0x7fff2c001320" -> "0x7fff20001de0"[color=green];
"0x7fff2c001320" -> "0x7ffefc001d60"[color=grey];
"0x7fff2c000c20"[label="K: 765 - H: 3"];
"0x7fff2c000c20" -> "0x7fff20001460"[color=blue];
"0x7fff2c000c20" -> "0x7ffefc0021e0"[color=green];
"0x7fff2c000c20" -> "0x7fff2c001320"[color=grey];
"0x7fff20001460"[label="K: 762 - H: 2"];
"0x7fff20001460" -> "0x7fff30000d60"[color=blue];
"0x7fff20001460" -> "0x7fff2c000c20"[color=grey];
"0x7fff30000d60"[label="K: 760 - H: 1"];
"0x7fff30000d60" -> "0x7fff20001460"[color=grey];
"0x7ffefc0021e0"[label="K: 768 - H: 2"];
"0x7ffefc0021e0" -> "0x7fffbc0023a0"[color=blue];
"0x7ffefc0021e0" -> "0x7fff2c000c20"[color=grey];
"0x7fffbc0023a0"[label="K: 766 - H: 1"];
"0x7fffbc0023a0" -> "0x7ffefc0021e0"[color=grey];
"0x7fff20001de0"[label="K: 773 - H: 3"];
"0x7fff20001de0" -> "0x7fff200011e0"[color=blue];
"0x7fff20001de0" -> "0x7fff9c001660"[color=green];
"0x7fff20001de0" -> "0x7fff2c001320"[color=grey];
"0x7fff200011e0"[label="K: 770 - H: 2"];
"0x7fff200011e0" -> "0x7fff4c001360"[color=green];
"0x7fff200011e0" -> "0x7fff20001de0"[color=grey];
"0x7fff4c001360"[label="K: 771 - H: 1"];
"0x7fff4c001360" -> "0x7fff200011e0"[color=grey];
"0x7fff9c001660"[label="K: 776 - H: 2"];
"0x7fff9c001660" -> "0x7fff04000b20"[color=blue];
"0x7fff9c001660" -> "0x7fff04001c20"[color=green];
"0x7fff9c001660" -> "0x7fff20001de0"[color=grey];
"0x7fff04000b20"[label="K: 774 - H: 1"];
"0x7fff04000b20" -> "0x7fff9c001660"[color=grey];
"0x7fff04001c20"[label="K: 780 - H: 1"];
"0x7fff04001c20" -> "0x7fff9c001660"[color=grey];
"0x7ffefc001de0"[label="K: 792 - H: 4"];
"0x7ffefc001de0" -> "0x7ffefc001960"[color=blue];
"0x7ffefc001de0" -> "0x7fff2c001c60"[color=green];
"0x7ffefc001de0" -> "0x7ffefc001d60"[color=grey];
"0x7ffefc001960"[label="K: 785 - H: 3"];
"0x7ffefc001960" -> "0x7ffefc000de0"[color=blue];
"0x7ffefc001960" -> "0x7fffb8001da0"[color=green];
"0x7ffefc001960" -> "0x7ffefc001de0"[color=grey];
"0x7ffefc000de0"[label="K: 783 - H: 1"];
"0x7ffefc000de0" -> "0x7ffefc001960"[color=grey];
"0x7fffb8001da0"[label="K: 788 - H: 2"];
"0x7fffb8001da0" -> "0x7fff44002420"[color=blue];
"0x7fffb8001da0" -> "0x7fff20002460"[color=green];
"0x7fffb8001da0" -> "0x7ffefc001960"[color=grey];
"0x7fff44002420"[label="K: 787 - H: 1"];
"0x7fff44002420" -> "0x7fffb8001da0"[color=grey];
"0x7fff20002460"[label="K: 789 - H: 1"];
"0x7fff20002460" -> "0x7fffb8001da0"[color=grey];
"0x7fff2c001c60"[label="K: 795 - H: 3"];
"0x7fff2c001c60" -> "0x7fffd0002820"[color=blue];
"0x7fff2c001c60" -> "0x7fffbc0021a0"[color=green];
"0x7fff2c001c60" -> "0x7ffefc001de0"[color=grey];
"0x7fffd0002820"[label="K: 793 - H: 2"];
"0x7fffd0002820" -> "0x7fff2c0020e0"[color=green];
"0x7fffd0002820" -> "0x7fff2c001c60"[color=grey];
"0x7fff2c0020e0"[label="K: 794 - H: 1"];
"0x7fff2c0020e0" -> "0x7fffd0002820"[color=grey];
"0x7fffbc0021a0"[label="K: 797 - H: 2"];
"0x7fffbc0021a0" -> "0x7fff20000ba0"[color=green];
"0x7fffbc0021a0" -> "0x7fff2c001c60"[color=grey];
"0x7fff20000ba0"[label="K: 798 - H: 1"];
"0x7fff20000ba0" -> "0x7fffbc0021a0"[color=grey];
"0x7fff90000da0"[label="K: 817 - H: 5"];
"0x7fff90000da0" -> "0x7fff20001f20"[color=blue];
"0x7fff90000da0" -> "0x7fffd0002620"[color=green];
"0x7fff90000da0" -> "0x7fff4c0024a0"[color=grey];
"0x7fff20001f20"[label="K: 809 - H: 4"];
"0x7fff20001f20" -> "0x7fff44001ba0"[color=blue];
"0x7fff20001f20" -> "0x7fff1c000d60"[color=green];
"0x7fff20001f20" -> "0x7fff90000da0"[color=grey];
"0x7fff44001ba0"[label="K: 802 - H: 3"];
"0x7fff44001ba0" -> "0x7fff20000b20"[color=blue];
"0x7fff44001ba0" -> "0x7ffefc001ca0"[color=green];
"0x7fff44001ba0" -> "0x7fff20001f20"[color=grey];
"0x7fff20000b20"[label="K: 800 - H: 2"];
"0x7fff20000b20" -> "0x7fffbc0013e0"[color=green];
"0x7fff20000b20" -> "0x7fff44001ba0"[color=grey];
"0x7fffbc0013e0"[label="K: 801 - H: 1"];
"0x7fffbc0013e0" -> "0x7fff20000b20"[color=grey];
"0x7ffefc001ca0"[label="K: 806 - H: 2"];
"0x7ffefc001ca0" -> "0x7fffac001560"[color=blue];
"0x7ffefc001ca0" -> "0x7fff200022e0"[color=green];
"0x7ffefc001ca0" -> "0x7fff44001ba0"[color=grey];
"0x7fffac001560"[label="K: 804 - H: 1"];
"0x7fffac001560" -> "0x7ffefc001ca0"[color=grey];
"0x7fff200022e0"[label="K: 808 - H: 1"];
"0x7fff200022e0" -> "0x7ffefc001ca0"[color=grey];
"0x7fff1c000d60"[label="K: 812 - H: 3"];
"0x7fff1c000d60" -> "0x7fff080010a0"[color=blue];
"0x7fff1c000d60" -> "0x7fff2c000c60"[color=green];
"0x7fff1c000d60" -> "0x7fff20001f20"[color=grey];
"0x7fff080010a0"[label="K: 811 - H: 2"];
"0x7fff080010a0" -> "0x7fff20002160"[color=blue];
"0x7fff080010a0" -> "0x7fff1c000d60"[color=grey];
"0x7fff20002160"[label="K: 810 - H: 1"];
"0x7fff20002160" -> "0x7fff080010a0"[color=grey];
"0x7fff2c000c60"[label="K: 815 - H: 1"];
"0x7fff2c000c60" -> "0x7fff1c000d60"[color=grey];
"0x7fffd0002620"[label="K: 827 - H: 4"];
"0x7fffd0002620" -> "0x7fff200025a0"[color=blue];
"0x7fffd0002620" -> "0x7fff20001ce0"[color=green];
"0x7fffd0002620" -> "0x7fff90000da0"[color=grey];
"0x7fff200025a0"[label="K: 824 - H: 2"];
"0x7fff200025a0" -> "0x7fffac002c20"[color=blue];
"0x7fff200025a0" -> "0x7ffef80015e0"[color=green];
"0x7fff200025a0" -> "0x7fffd0002620"[color=grey];
"0x7fffac002c20"[label="K: 821 - H: 1"];
"0x7fffac002c20" -> "0x7fff200025a0"[color=grey];
"0x7ffef80015e0"[label="K: 825 - H: 1"];
"0x7ffef80015e0" -> "0x7fff200025a0"[color=grey];
"0x7fff20001ce0"[label="K: 833 - H: 3"];
"0x7fff20001ce0" -> "0x7fff74001420"[color=blue];
"0x7fff20001ce0" -> "0x7fffa4001960"[color=green];
"0x7fff20001ce0" -> "0x7fffd0002620"[color=grey];
"0x7fff74001420"[label="K: 831 - H: 1"];
"0x7fff74001420" -> "0x7fff20001ce0"[color=grey];
"0x7fffa4001960"[label="K: 837 - H: 2"];
"0x7fffa4001960" -> "0x7fff4c001b20"[color=blue];
"0x7fffa4001960" -> "0x7fff20001ce0"[color=grey];
"0x7fff4c001b20"[label="K: 834 - H: 1"];
"0x7fff4c001b20" -> "0x7fffa4001960"[color=grey];
"0x7ffefc0014a0"[label="K: 915 - H: 8"];
"0x7ffefc0014a0" -> "0x7fff4c0013a0"[color=blue];
"0x7ffefc0014a0" -> "0x7fff4c001420"[color=green];
"0x7ffefc0014a0" -> "0x7fff90001e20"[color=grey];
"0x7fff4c0013a0"[label="K: 868 - H: 6"];
"0x7fff4c0013a0" -> "0x7fff08001520"[color=blue];
"0x7fff4c0013a0" -> "0x7fff20001760"[color=green];
"0x7fff4c0013a0" -> "0x7ffefc0014a0"[color=grey];
"0x7fff08001520"[label="K: 851 - H: 5"];
"0x7fff08001520" -> "0x7fffd0001f20"[color=blue];
"0x7fff08001520" -> "0x7fff040011a0"[color=green];
"0x7fff08001520" -> "0x7fff4c0013a0"[color=grey];
"0x7fffd0001f20"[label="K: 845 - H: 3"];
"0x7fffd0001f20" -> "0x7fffac001f60"[color=blue];
"0x7fffd0001f20" -> "0x7fff1c0014e0"[color=green];
"0x7fffd0001f20" -> "0x7fff08001520"[color=grey];
"0x7fffac001f60"[label="K: 844 - H: 2"];
"0x7fffac001f60" -> "0x7ffef80016e0"[color=blue];
"0x7fffac001f60" -> "0x7fffd0001f20"[color=grey];
"0x7ffef80016e0"[label="K: 841 - H: 1"];
"0x7ffef80016e0" -> "0x7fffac001f60"[color=grey];
"0x7fff1c0014e0"[label="K: 847 - H: 2"];
"0x7fff1c0014e0" -> "0x7fff5c0026a0"[color=blue];
"0x7fff1c0014e0" -> "0x7fff04000f60"[color=green];
"0x7fff1c0014e0" -> "0x7fffd0001f20"[color=grey];
"0x7fff5c0026a0"[label="K: 846 - H: 1"];
"0x7fff5c0026a0" -> "0x7fff1c0014e0"[color=grey];
"0x7fff04000f60"[label="K: 849 - H: 1"];
"0x7fff04000f60" -> "0x7fff1c0014e0"[color=grey];
"0x7fff040011a0"[label="K: 858 - H: 4"];
"0x7fff040011a0" -> "0x7fff1c000f60"[color=blue];
"0x7fff040011a0" -> "0x7fff2c001820"[color=green];
"0x7fff040011a0" -> "0x7fff08001520"[color=grey];
"0x7fff1c000f60"[label="K: 854 - H: 2"];
"0x7fff1c000f60" -> "0x7fff1c0011a0"[color=blue];
"0x7fff1c000f60" -> "0x7fff040022a0"[color=green];
"0x7fff1c000f60" -> "0x7fff040011a0"[color=grey];
"0x7fff1c0011a0"[label="K: 853 - H: 1"];
"0x7fff1c0011a0" -> "0x7fff1c000f60"[color=grey];
"0x7fff040022a0"[label="K: 857 - H: 1"];
"0x7fff040022a0" -> "0x7fff1c000f60"[color=grey];
"0x7fff2c001820"[label="K: 861 - H: 3"];
"0x7fff2c001820" -> "0x7fff2c0018e0"[color=blue];
"0x7fff2c001820" -> "0x7fff4c002920"[color=green];
"0x7fff2c001820" -> "0x7fff040011a0"[color=grey];
"0x7fff2c0018e0"[label="K: 859 - H: 2"];
"0x7fff2c0018e0" -> "0x7fff440015e0"[color=green];
"0x7fff2c0018e0" -> "0x7fff2c001820"[color=grey];
"0x7fff440015e0"[label="K: 860 - H: 1"];
"0x7fff440015e0" -> "0x7fff2c0018e0"[color=grey];
"0x7fff4c002920"[label="K: 863 - H: 2"];
"0x7fff4c002920" -> "0x7fff04000ba0"[color=blue];
"0x7fff4c002920" -> "0x7fff04001be0"[color=green];
"0x7fff4c002920" -> "0x7fff2c001820"[color=grey];
"0x7fff04000ba0"[label="K: 862 - H: 1"];
"0x7fff04000ba0" -> "0x7fff4c002920"[color=grey];
"0x7fff04001be0"[label="K: 864 - H: 1"];
"0x7fff04001be0" -> "0x7fff4c002920"[color=grey];
"0x7fff20001760"[label="K: 889 - H: 5"];
"0x7fff20001760" -> "0x7fff30001c60"[color=blue];
"0x7fff20001760" -> "0x7fff08001060"[color=green];
"0x7fff20001760" -> "0x7fff4c0013a0"[color=grey];
"0x7fff30001c60"[label="K: 881 - H: 4"];
"0x7fff30001c60" -> "0x7ffef80017e0"[color=blue];
"0x7fff30001c60" -> "0x7fff2c002120"[color=green];
"0x7fff30001c60" -> "0x7fff20001760"[color=grey];
"0x7ffef80017e0"[label="K: 875 - H: 3"];
"0x7ffef80017e0" -> "0x7fff20002560"[color=blue];
"0x7ffef80017e0" -> "0x7fffbc001e20"[color=green];
"0x7ffef80017e0" -> "0x7fff30001c60"[color=grey];
"0x7fff20002560"[label="K: 873 - H: 2"];
"0x7fff20002560" -> "0x7fff440018e0"[color=green];
"0x7fff20002560" -> "0x7ffef80017e0"[color=grey];
"0x7fff440018e0"[label="K: 874 - H: 1"];
"0x7fff440018e0" -> "0x7fff20002560"[color=grey];
"0x7fffbc001e20"[label="K: 880 - H: 2"];
"0x7fffbc001e20" -> "0x7fffd0001960"[color=blue];
"0x7fffbc001e20" -> "0x7ffef80017e0"[color=grey];
"0x7fffd0001960"[label="K: 877 - H: 1"];
"0x7fffd0001960" -> "0x7fffbc001e20"[color=grey];
"0x7fff2c002120"[label="K: 885 - H: 3"];
"0x7fff2c002120" -> "0x7fff4c002220"[color=blue];
"0x7fff2c002120" -> "0x7ffefc0012e0"[color=green];
"0x7fff2c002120" -> "0x7fff30001c60"[color=grey];
"0x7fff4c002220"[label="K: 883 - H: 2"];
"0x7fff4c002220" -> "0x7fff20001fe0"[color=green];
"0x7fff4c002220" -> "0x7fff2c002120"[color=grey];
"0x7fff20001fe0"[label="K: 884 - H: 1"];
"0x7fff20001fe0" -> "0x7fff4c002220"[color=grey];
"0x7ffefc0012e0"[label="K: 886 - H: 1"];
"0x7ffefc0012e0" -> "0x7fff2c002120"[color=grey];
"0x7fff08001060"[label="K: 910 - H: 3"];
"0x7fff08001060" -> "0x7fff2c001120"[color=blue];
"0x7fff08001060" -> "0x7ffefc000ba0"[color=green];
"0x7fff08001060" -> "0x7fff20001760"[color=grey];
"0x7fff2c001120"[label="K: 894 - H: 2"];
"0x7fff2c001120" -> "0x7fff04001020"[color=blue];
"0x7fff2c001120" -> "0x7ffef8000b20"[color=green];
"0x7fff2c001120" -> "0x7fff08001060"[color=grey];
"0x7fff04001020"[label="K: 890 - H: 1"];
"0x7fff04001020" -> "0x7fff2c001120"[color=grey];
"0x7ffef8000b20"[label="K: 896 - H: 1"];
"0x7ffef8000b20" -> "0x7fff2c001120"[color=grey];
"0x7ffefc000ba0"[label="K: 914 - H: 2"];
"0x7ffefc000ba0" -> "0x7ffef0000c60"[color=blue];
"0x7ffefc000ba0" -> "0x7fff08001060"[color=grey];
"0x7ffef0000c60"[label="K: 911 - H: 1"];
"0x7ffef0000c60" -> "0x7ffefc000ba0"[color=grey];
"0x7fff4c001420"[label="K: 965 - H: 7"];
"0x7fff4c001420" -> "0x7fff4c0023a0"[color=blue];
"0x7fff4c001420" -> "0x7fffd0001ca0"[color=green];
"0x7fff4c001420" -> "0x7ffefc0014a0"[color=grey];
"0x7fff4c0023a0"[label="K: 950 - H: 6"];
"0x7fff4c0023a0" -> "0x7fff5c001ba0"[color=blue];
"0x7fff4c0023a0" -> "0x7fffa4001ba0"[color=green];
"0x7fff4c0023a0" -> "0x7fff4c001420"[color=grey];
"0x7fff5c001ba0"[label="K: 932 - H: 5"];
"0x7fff5c001ba0" -> "0x7fffa4001120"[color=blue];
"0x7fff5c001ba0" -> "0x7fff44000b60"[color=green];
"0x7fff5c001ba0" -> "0x7fff4c0023a0"[color=grey];
"0x7fffa4001120"[label="K: 923 - H: 4"];
"0x7fffa4001120" -> "0x7fff44000ca0"[color=blue];
"0x7fffa4001120" -> "0x7ffef0001420"[color=green];
"0x7fffa4001120" -> "0x7fff5c001ba0"[color=grey];
"0x7fff44000ca0"[label="K: 919 - H: 2"];
"0x7fff44000ca0" -> "0x7fff4c001aa0"[color=blue];
"0x7fff44000ca0" -> "0x7fff2c000d20"[color=green];
"0x7fff44000ca0" -> "0x7fffa4001120"[color=grey];
"0x7fff4c001aa0"[label="K: 916 - H: 1"];
"0x7fff4c001aa0" -> "0x7fff44000ca0"[color=grey];
"0x7fff2c000d20"[label="K: 920 - H: 1"];
"0x7fff2c000d20" -> "0x7fff44000ca0"[color=grey];
"0x7ffef0001420"[label="K: 925 - H: 3"];
"0x7ffef0001420" -> "0x7fff080014e0"[color=blue];
"0x7ffef0001420" -> "0x7fff2c001e60"[color=green];
"0x7ffef0001420" -> "0x7fffa4001120"[color=grey];
"0x7fff080014e0"[label="K: 924 - H: 1"];
"0x7fff080014e0" -> "0x7ffef0001420"[color=grey];
"0x7fff2c001e60"[label="K: 929 - H: 2"];
"0x7fff2c001e60" -> "0x7fff44000ce0"[color=blue];
"0x7fff2c001e60" -> "0x7ffef0001420"[color=grey];
"0x7fff44000ce0"[label="K: 926 - H: 1"];
"0x7fff44000ce0" -> "0x7fff2c001e60"[color=grey];
"0x7fff44000b60"[label="K: 945 - H: 3"];
"0x7fff44000b60" -> "0x7fff20002320"[color=blue];
"0x7fff44000b60" -> "0x7fff04001420"[color=green];
"0x7fff44000b60" -> "0x7fff5c001ba0"[color=grey];
"0x7fff20002320"[label="K: 934 - H: 2"];
"0x7fff20002320" -> "0x7fff1c001060"[color=blue];
"0x7fff20002320" -> "0x7fffbc001ca0"[color=green];
"0x7fff20002320" -> "0x7fff44000b60"[color=grey];
"0x7fff1c001060"[label="K: 933 - H: 1"];
"0x7fff1c001060" -> "0x7fff20002320"[color=grey];
"0x7fffbc001ca0"[label="K: 937 - H: 1"];
"0x7fffbc001ca0" -> "0x7fff20002320"[color=grey];
"0x7fff04001420"[label="K: 946 - H: 1"];
"0x7fff04001420" -> "0x7fff44000b60"[color=grey];
"0x7fffa4001ba0"[label="K: 954 - H: 4"];
"0x7fffa4001ba0" -> "0x7fffa4001a60"[color=blue];
"0x7fffa4001ba0" -> "0x7fff04001de0"[color=green];
"0x7fffa4001ba0" -> "0x7fff4c0023a0"[color=grey];
"0x7fffa4001a60"[label="K: 951 - H: 2"];
"0x7fffa4001a60" -> "0x7fff3c0024a0"[color=green];
"0x7fffa4001a60" -> "0x7fffa4001ba0"[color=grey];
"0x7fff3c0024a0"[label="K: 952 - H: 1"];
"0x7fff3c0024a0" -> "0x7fffa4001a60"[color=grey];
"0x7fff04001de0"[label="K: 958 - H: 3"];
"0x7fff04001de0" -> "0x7fff04001a20"[color=blue];
"0x7fff04001de0" -> "0x7fff4c000ba0"[color=green];
"0x7fff04001de0" -> "0x7fffa4001ba0"[color=grey];
"0x7fff04001a20"[label="K: 955 - H: 1"];
"0x7fff04001a20" -> "0x7fff04001de0"[color=grey];
"0x7fff4c000ba0"[label="K: 960 - H: 2"];
"0x7fff4c000ba0" -> "0x7fffac0027e0"[color=blue];
"0x7fff4c000ba0" -> "0x7ffefc001760"[color=green];
"0x7fff4c000ba0" -> "0x7fff04001de0"[color=grey];
"0x7fffac0027e0"[label="K: 959 - H: 1"];
"0x7fffac0027e0" -> "0x7fff4c000ba0"[color=grey];
"0x7ffefc001760"[label="K: 963 - H: 1"];
"0x7ffefc001760" -> "0x7fff4c000ba0"[color=grey];
"0x7fffd0001ca0"[label="K: 986 - H: 5"];
"0x7fffd0001ca0" -> "0x7fffd0001a60"[color=blue];
"0x7fffd0001ca0" -> "0x7fff30001660"[color=green];
"0x7fffd0001ca0" -> "0x7fff4c001420"[color=grey];
"0x7fffd0001a60"[label="K: 977 - H: 4"];
"0x7fffd0001a60" -> "0x7fff080012a0"[color=blue];
"0x7fffd0001a60" -> "0x7ffefc002060"[color=green];
"0x7fffd0001a60" -> "0x7fffd0001ca0"[color=grey];
"0x7fff080012a0"[label="K: 968 - H: 3"];
"0x7fff080012a0" -> "0x7fff200022a0"[color=blue];
"0x7fff080012a0" -> "0x7fff4c0026e0"[color=green];
"0x7fff080012a0" -> "0x7fffd0001a60"[color=grey];
"0x7fff200022a0"[label="K: 967 - H: 2"];
"0x7fff200022a0" -> "0x7fff440012a0"[color=blue];
"0x7fff200022a0" -> "0x7fff080012a0"[color=grey];
"0x7fff440012a0"[label="K: 966 - H: 1"];
"0x7fff440012a0" -> "0x7fff200022a0"[color=grey];
"0x7fff4c0026e0"[label="K: 971 - H: 2"];
"0x7fff4c0026e0" -> "0x7fff44000da0"[color=blue];
"0x7fff4c0026e0" -> "0x7fffbc000f20"[color=green];
"0x7fff4c0026e0" -> "0x7fff080012a0"[color=grey];
"0x7fff44000da0"[label="K: 970 - H: 1"];
"0x7fff44000da0" -> "0x7fff4c0026e0"[color=grey];
"0x7fffbc000f20"[label="K: 975 - H: 1"];
"0x7fffbc000f20" -> "0x7fff4c0026e0"[color=grey];
"0x7ffefc002060"[label="K: 979 - H: 3"];
"0x7ffefc002060" -> "0x7fff24000f60"[color=blue];
"0x7ffefc002060" -> "0x7fff20001d60"[color=green];
"0x7ffefc002060" -> "0x7fffd0001a60"[color=grey];
"0x7fff24000f60"[label="K: 978 - H: 1"];
"0x7fff24000f60" -> "0x7ffefc002060"[color=grey];
"0x7fff20001d60"[label="K: 982 - H: 2"];
"0x7fff20001d60" -> "0x7fffa4000c60"[color=blue];
"0x7fff20001d60" -> "0x7ffefc0016e0"[color=green];
"0x7fff20001d60" -> "0x7ffefc002060"[color=grey];
"0x7fffa4000c60"[label="K: 980 - H: 1"];
"0x7fffa4000c60" -> "0x7fff20001d60"[color=grey];
"0x7ffefc0016e0"[label="K: 983 - H: 1"];
"0x7ffefc0016e0" -> "0x7fff20001d60"[color=grey];
"0x7fff30001660"[label="K: 990 - H: 4"];
"0x7fff30001660" -> "0x7fff20002260"[color=blue];
"0x7fff30001660" -> "0x7fff440018a0"[color=green];
"0x7fff30001660" -> "0x7fffd0001ca0"[color=grey];
"0x7fff20002260"[label="K: 988 - H: 2"];
"0x7fff20002260" -> "0x7fff20001960"[color=blue];
"0x7fff20002260" -> "0x7fff2c000da0"[color=green];
"0x7fff20002260" -> "0x7fff30001660"[color=grey];
"0x7fff20001960"[label="K: 987 - H: 1"];
"0x7fff20001960" -> "0x7fff20002260"[color=grey];
"0x7fff2c000da0"[label="K: 989 - H: 1"];
"0x7fff2c000da0" -> "0x7fff20002260"[color=grey];
"0x7fff440018a0"[label="K: 994 - H: 3"];
"0x7fff440018a0" -> "0x7fffb80028e0"[color=blue];
"0x7fff440018a0" -> "0x7ffef0000e60"[color=green];
"0x7fff440018a0" -> "0x7fff30001660"[color=grey];
"0x7fffb80028e0"[label="K: 992 - H: 2"];
"0x7fffb80028e0" -> "0x7fffbc001420"[color=blue];
"0x7fffb80028e0" -> "0x7fffac001c20"[color=green];
"0x7fffb80028e0" -> "0x7fff440018a0"[color=grey];
"0x7fffbc001420"[label="K: 991 - H: 1"];
"0x7fffbc001420" -> "0x7fffb80028e0"[color=grey];
"0x7fffac001c20"[label="K: 993 - H: 1"];
"0x7fffac001c20" -> "0x7fffb80028e0"[color=grey];
"0x7ffef0000e60"[label="K: 998 - H: 1"];
"0x7ffef0000e60" -> "0x7fff440018a0"[color=grey];
}